Id,Sales
771,6095.19921875
1627,6291.84375
2483,6470.97998047
3339,8240.66796875
5051,5063.66845703
5907,4637.85644531
6763,4093.89697266
7619,4127.93310547
8475,4141.97216797
9331,4438.07373047
11043,5114.38818359
11899,6815.63037109
12755,6487.25195312
13611,6575.04052734
14467,6934.19580078
15323,7537.93457031
17035,5344.19873047
17891,4953.015625
18747,4205.63623047
19603,4100.15478516
20459,3880.19970703
21315,4121.05273438
23027,4859.21777344
23883,6483.33251953
24739,6226.65039062
25595,6323.66943359
26451,6435.515625
27307,8115.75439453
29875,4628.70556641
30731,4075.55810547
31587,4104.38085938
32443,4117.22314453
33299,4384.36474609
35011,5070.46044922
35867,6978.60986328
36723,6575.07763672
37579,6671.25292969
38435,6719.48974609
39291,8308.16894531
41003,5470.29150391
