Id,Sales
777,7304.74365234
1633,7709.52880859
2489,7902.66748047
3345,9771.39160156
5057,6236.10839844
5913,5859.51171875
6769,5793.70947266
7625,5930.17773438
8481,5924.79052734
9337,6396.56640625
11049,6427.60009766
11905,7632.89355469
12761,7639.48291016
13617,8281.77246094
14473,8677.53320312
15329,9387.28222656
17041,6927.28027344
17897,6658.86767578
18753,5872.30273438
19609,5722.44189453
20465,5606.47949219
21321,5988.01464844
23033,6065.18652344
23889,7238.09277344
24745,7229.17138672
25601,7591.28417969
26457,7589.46044922
27313,8483.24121094
29025,6293.13134766
29881,5926.60742188
30737,5839.29052734
31593,5968.82080078
32449,5952.80566406
33305,6388.16503906
35017,6382.40283203
35873,7462.24560547
36729,7450.13574219
37585,7957.96533203
38441,8009.3046875
39297,8919.57910156
41009,6736.04931641
