Id,Sales
793,6478.20996094
1649,6549.43505859
2505,6633.29589844
3361,8679.1015625
5073,4849.41845703
5929,5145.19970703
6785,5401.09716797
7641,4937.71240234
8497,4752.31054688
9353,5903.13232422
11065,5159.53076172
11921,5981.94726562
12777,6929.12890625
13633,7194.20605469
14489,8021.51611328
15345,10036.2832031
17057,5769.08105469
17913,5503.93066406
18769,5294.22167969
19625,4945.67382812
20481,4568.72753906
21337,5339.16894531
23049,4635.64257812
23905,6040.33837891
24761,7264.63574219
25617,7082.64160156
26473,7119.83984375
27329,8560.31347656
29041,5360.12597656
29897,5650.24023438
30753,5681.00048828
31609,5660.39746094
32465,5428.13427734
33321,5782.72167969
35033,4977.13085938
35889,6915.36914062
36745,7429.09423828
37601,6991.53320312
38457,7794.44726562
39313,9504.25683594
41025,5165.84423828
