Id,Sales
796,8547.34179688
1652,8642.00488281
2508,10145.6542969
3364,12466.453125
5076,6355.18164062
5932,7302.16992188
6788,7273.26074219
7644,6575.39892578
8500,6821.75195312
9356,7536.02441406
11068,6710.11621094
11924,9420.14648438
12780,9800.2265625
13636,10346.7949219
14492,11223.6835938
15348,14799.2714844
17060,6723.11474609
17916,8084.39892578
18772,6808.73828125
19628,6354.86621094
20484,6229.31152344
21340,6629.22900391
23052,5916.50878906
23908,9079.20898438
24764,9359.53320312
25620,9102.68945312
26476,9664.72167969
27332,11634.9482422
29044,6932.9296875
29900,7979.5390625
30756,7402.68994141
31612,6695.48828125
32468,6891.68408203
33324,7724.97998047
35036,6728.62548828
35892,8800.10058594
36748,9153.69921875
37604,8812.53125
38460,10007.1015625
39316,13021.5742188
41028,7220.63183594
