Id,Sales
805,7666.61816406
1661,8356.42578125
2517,9134.62597656
3373,9463.75976562
5085,4935.55566406
5941,5604.73828125
6797,5939.75439453
7653,6110.42089844
8509,6375.68505859
9365,6578.37890625
11077,5089.38427734
11933,7786.51123047
12789,7851.07080078
13645,8754.06640625
14501,9218.77148438
15357,10736.6474609
17069,5745.27050781
17925,6387.62158203
18781,6370.72460938
19637,5689.37841797
20493,5723.27734375
21349,6033.56640625
23061,4988.33300781
23917,7526.15478516
24773,7528.68896484
25629,7977.59082031
26485,8453.75488281
27341,8807.80078125
29053,5314.13085938
29909,5883.46386719
30765,6022.16503906
31621,5749.59570312
32477,6321.77246094
33333,6450.65429688
35045,5208.41455078
35901,7983.36035156
36757,7814.33691406
37613,8524.02539062
38469,9610.4609375
39325,10436.5507812
41037,6401.375
