Id,Sales
806,6829.19970703
1662,7222.81542969
2518,7723.18945312
3374,9774.59277344
5086,5160.33300781
5942,5699.3125
6798,5885.84912109
7654,5695.09033203
8510,5765.23583984
9366,6354.52050781
11078,5051.86132812
11934,8489.37988281
12790,7787.13525391
13646,8129.71875
14502,8918.88964844
15358,9880.10351562
17070,5568.03515625
17926,7146.71484375
18782,5583.88476562
19638,5407.46337891
20494,5461.89355469
21350,5824.07226562
23062,4802.20800781
23918,7222.78076172
24774,7350.56152344
25630,7811.22949219
26486,8303.93945312
27342,9507.46582031
29054,5089.57324219
29910,6468.49121094
30766,6138.04492188
31622,6317.58886719
32478,6408.0703125
33334,6643.6484375
35046,5454.81787109
35902,7379.48242188
36758,7584.93066406
37614,7389.72363281
38470,8425.1875
39326,10059.9931641
41038,5442.65136719
