Id,Sales
825,9989.640625
1681,10826.6142578
2537,10919.875
3393,12708.0595703
5105,6604.32519531
5961,8500.33398438
6817,8551.05175781
7673,8672.39941406
8529,8458.94140625
9385,9228.77441406
11097,6896.95117188
11953,10378.0761719
12809,10683.3574219
13665,11873.1738281
14521,12109.1845703
15377,11922.7070312
17089,6284.60546875
17945,7563.52490234
18801,7202.14990234
19657,7291.40332031
20513,7406.07275391
21369,7874.40917969
23081,6603.49316406
23937,9289.55078125
24793,9854.91894531
25649,10164.6376953
26505,10924.3652344
27361,13071.0224609
29073,7312.79931641
29929,8839.60449219
30785,8863.90234375
31641,8313.12402344
32497,8760.84863281
33353,9390.10449219
35065,6941.47216797
35921,10554.4609375
36777,10445.6425781
37633,11084.5351562
38489,10876.8007812
39345,13108.4501953
41057,7658.66601562
