Id,Sales
832,6131.63183594
1688,5938.56445312
2544,7412.39746094
3400,8068.95361328
5112,5232.90527344
5968,4536.01611328
6824,5037.68994141
7680,5196.60400391
8536,5572.97167969
9392,5918.15722656
11104,5209.52246094
11960,6141.24267578
12816,5860.49414062
13672,6447.02539062
14528,7178.62597656
15384,8651.67871094
17096,5860.75683594
17952,5788.21289062
18808,5183.45019531
19664,4309.50634766
20520,4688.01660156
21376,5093.25976562
23088,4458.19824219
23944,5856.61035156
24800,5896.81835938
25656,5663.21142578
26512,6607.22949219
27368,7378.99658203
29080,5058.69921875
29936,4900.72314453
30792,5266.06298828
31648,5041.88671875
32504,5493.81347656
33360,5471.38867188
35072,5108.37646484
35928,5691.98925781
36784,6267.25195312
37640,6888.24707031
38496,7732.95605469
39352,8020.00146484
41064,5655.90185547
