Id,Sales
88,4063.24438477
944,4081.27294922
1800,4414.83007812
2656,5269.56982422
4368,2200.87548828
5224,3459.37207031
6080,3236.87768555
6936,3260.38134766
7792,3366.13525391
8648,3777.66674805
10360,2190.671875
11216,4306.41894531
12072,4233.67333984
12928,4642.69775391
13784,5002.74267578
14640,5471.78955078
16352,2173.203125
17208,3533.1796875
18064,3088.94946289
18920,3100.51953125
19776,3124.16943359
20632,3446.28564453
22344,2074.75048828
23200,4081.56005859
24056,4000.74829102
24912,4052.72631836
25768,4396.41162109
26624,5239.22314453
28336,2152.59667969
29192,3420.17089844
30048,3165.29638672
30904,3189.01098633
31760,3183.55761719
32616,3561.2109375
34328,2165.16625977
35184,4044.37133789
36040,4002.54785156
36896,4106.79882812
37752,4501.61914062
38608,5113.10644531
40320,2602.19262695
