Id,Sales
91,7256.50537109
947,7311.73388672
1803,7947.0390625
2659,9903.36230469
4371,5631.09521484
5227,5857.52636719
6083,5448.12011719
6939,5466.75048828
7795,5520.27441406
8651,6067.58789062
10363,5733.99560547
11219,7794.51416016
12075,7670.83935547
12931,7771.80810547
13787,7980.90039062
14643,12168.0488281
16355,5890.30712891
17211,5885.37207031
18067,5140.99121094
18923,5077.74853516
19779,5099.71923828
20635,5819.45263672
22347,5020.921875
23203,7379.99316406
24059,7142.23583984
24915,7211.91601562
25771,7748.84033203
26627,9773.7421875
28339,5017.58251953
29195,5547.56445312
30051,5103.24316406
30907,5115.54492188
31763,5213.20800781
32619,5931.13037109
34331,5243.32519531
35187,7643.37548828
36043,7316.63818359
36899,7455.81298828
37755,8088.20117188
38611,10042.0634766
40323,5770.2890625
