Id,Sales
98,5292.98681641
954,5303.58544922
1810,5500.38476562
2666,6350.99609375
4378,4177.95166016
5234,4362.77246094
6090,4337.69970703
6946,4349.55664062
7802,4436.72021484
8658,4871.69628906
10370,4162.70703125
11226,5289.97265625
12082,5318.96630859
12938,5483.16943359
13794,5673.32568359
14650,7271.35986328
16362,4285.45800781
17218,4396.40283203
18074,4082.11767578
18930,4045.71557617
19786,4125.87890625
20642,4543.69189453
22354,3842.09887695
23210,4997.25
24066,5032.84960938
24922,5067.31298828
25778,5397.86474609
26634,6232.22949219
28346,4002.72241211
29202,4177.81054688
30058,4146.72314453
30914,4155.97705078
31770,4298.44042969
32626,4749.25927734
34338,4006.26147461
35194,5184.56347656
36050,5172.35205078
36906,5200.69042969
37762,5588.94824219
38618,6527.03417969
40330,4471.91064453
