Id,Sales
99,4891.234375
955,4863.20751953
1811,5175.86279297
2667,6472.65429688
4379,4673.20654297
5235,4278.16064453
6091,4008.21972656
6947,4037.61254883
7803,4137.79931641
8659,4490.32568359
10371,4915.72363281
11227,5225.99609375
12083,5334.14501953
12939,5343.31982422
13795,5526.83398438
14651,6510.77636719
16363,4519.23974609
17219,4186.84033203
18075,3833.30737305
18931,3790.68603516
19787,3801.18701172
20643,4085.53686523
22355,4399.95800781
23211,4802.50439453
24067,4834.54492188
24923,4812.71777344
25779,5055.41650391
26635,6242.234375
28347,4512.91992188
29203,4138.86132812
30059,3893.81616211
30915,3869.44580078
31771,3889.33056641
32627,4303.17773438
34339,4575.70849609
35195,4826.28173828
36051,4918.07910156
36907,4953.36914062
37763,5176.28613281
38619,6544.18798828
40331,4948.63964844
