Id,Sales
103,7258.23535156
959,7298.68212891
1815,7697.09521484
2671,9018.92089844
4383,5660.99560547
5239,6388.97216797
6095,6069.62695312
6951,6080.22460938
7807,6122.64257812
8663,6408.95166016
10375,5741.63574219
11231,8459.87792969
12087,7614.89648438
12943,7574.07617188
13799,7810.47851562
14655,9017.24414062
16367,5757.69921875
17223,6399.09423828
18079,5985.47753906
18935,5961.19628906
19791,5987.97705078
20647,6273.34814453
22359,5639.33105469
23215,8406.90332031
24071,7552.59960938
24927,7527.68115234
25783,7747.73242188
26639,8939.10644531
29207,6341.76318359
30063,5985.1171875
30919,5984.89453125
31775,6083.92724609
32631,6392.45019531
34343,5745.34960938
35199,8561.1640625
36055,7755.83251953
36911,7715.01220703
37767,7867.79150391
38623,9027.98242188
40335,5799.77001953
