Id,Sales
107,4401.08544922
963,4519.78076172
1819,4781.94287109
2675,5670.73535156
4387,3009.00219727
5243,4243.015625
6099,3889.50244141
6955,3982.08862305
7811,4008.20605469
8667,4399.72509766
10379,3093.62817383
11235,4968.47558594
12091,4791.44677734
12947,5188.52294922
13803,5608.09423828
14659,6299.07861328
16371,3136.18237305
17227,4412.64794922
18083,3694.03930664
18939,3793.78466797
19795,3807.16772461
20651,4153.10351562
22363,2958.29711914
23219,4633.76660156
24075,4372.81005859
24931,4507.62597656
25787,4730.74365234
26643,5619.13818359
28355,2995.09838867
29211,4200.59521484
30067,3748.10400391
30923,3843.39746094
31779,3923.25610352
32635,4322.44628906
34347,3083.80297852
35203,4775.32910156
36059,4679.99072266
36915,4791.84228516
37771,4938.60498047
38627,5808.65820312
40339,3232.35546875
