Id,Sales
109,8534.54199219
965,8264.29394531
1821,8505.0625
2677,10782.96875
4389,6163.296875
5245,7928.39257812
6101,7748.63623047
6957,7342.1484375
7813,7636.12695312
8669,7972.140625
10381,6283.54492188
11237,9886.07226562
12093,9694.63769531
12949,9254.90820312
13805,8978.2265625
14661,10508.1064453
16373,6058.31982422
17229,7807.35351562
18085,7555.58154297
18941,7215.94775391
19797,7432.67871094
20653,7837.98339844
22365,6049.47216797
23221,9891.49902344
24077,9674.51367188
24933,9307.32226562
25789,9183.49902344
26645,10528.5332031
29213,7880.4609375
30069,7708.58007812
30925,7308.87060547
31781,7510.38476562
32637,7917.42919922
34349,6087.29931641
35205,10072.2460938
36061,9856.08691406
36917,9530.46875
37773,9139.50976562
38629,10515.0087891
40341,6815.7578125
