Id,Sales
12,8204.29199219
868,8811.26171875
1724,9485.54980469
2580,10824.6503906
4292,5305.48144531
5148,6875.51904297
6004,6786.61474609
6860,7030.85693359
7716,7114.24804688
8572,7586.25878906
10284,5190.05664062
11140,8517.71289062
11996,8578.59375
12852,9088.42578125
13708,9780.64160156
14564,10677.3447266
16276,4908.46923828
17132,6736.87939453
17988,6417.84814453
18844,6496.16455078
19700,6575.98779297
20556,7094.31933594
22268,4832.61083984
23124,8027.65771484
23980,7996.21972656
24836,8403.72363281
25692,8982.46289062
26548,10318.1855469
28260,5207.55810547
29116,6767.46923828
29972,6663.109375
30828,6890.34716797
31684,6974.18505859
32540,7471.47070312
34252,5236.46289062
35108,8544.37304688
35964,8526.15332031
36820,9007.39550781
37676,9662.359375
38532,11107.6308594
40244,5923.71972656
