Id,Sales
130,4551.95947266
986,4632.13232422
1842,5015.48583984
2698,5941.50146484
4410,3122.27319336
5266,3405.37719727
6122,3273.27880859
6978,3314.36376953
7834,3312.4675293
8690,3349.52075195
10402,3210.05932617
11258,4875.39160156
12114,4714.50537109
12970,4506.95556641
13826,4848.34521484
14682,6634.4296875
16394,3288.04541016
17250,3571.50732422
18106,3070.45800781
18962,3084.45141602
19818,3067.42236328
20674,3085.22729492
22386,2992.87939453
23242,4594.11621094
24098,4421.62255859
24954,4474.06591797
25810,4937.37207031
26666,5901.16259766
28378,3071.29492188
29234,3379.61035156
30090,3134.03466797
30946,3159.51855469
31802,3428.89868164
32658,3607.05615234
34370,3141.33911133
35226,4728.85009766
36082,4605.46191406
36938,4671.96582031
37794,5076.51220703
38650,6096.06298828
40362,3104.22631836
