Id,Sales
138,7308.37207031
994,7337.94140625
1850,8287.34765625
2706,10172.4853516
4418,3308.95385742
5274,5370.63427734
6130,5319.21484375
6986,5358.60888672
7842,5381.08984375
8698,5498.76953125
10410,3279.98291016
11266,7552.18164062
12122,7551.83105469
12978,7576.59960938
13834,8150.35742188
14690,12139.7402344
16402,3398.21191406
17258,5441.73583984
18114,5221.40039062
18970,5031.27148438
19826,5064.80615234
20682,5209.03466797
22394,3234.9519043
23250,7271.75439453
24106,7298.80322266
24962,7303.21435547
25818,8138.59033203
26674,9962.72167969
28386,3355.83837891
29242,5286.19921875
30098,5220.05957031
30954,5212.8515625
31810,5359.55908203
32666,5498.18017578
34378,3443.25341797
35234,7628.56982422
36090,7650.70458984
36946,7678.39160156
37802,8403.82226562
38658,10218.3525391
40370,3867.78540039
