Id,Sales
163,8943.56152344
1019,9293.56933594
1875,9765.03710938
2731,11676.6787109
4443,7408.16113281
5299,7210.79980469
6155,6519.03173828
7011,6687.10009766
7867,6690.29638672
8723,6823.95361328
10435,7591.21972656
11291,9530.26171875
12147,9273.92871094
13003,9970.22558594
13859,10465.796875
14715,14768.3105469
16427,7858.79882812
17283,7459.64160156
18139,6489.69726562
18995,6562.12744141
19851,6477.23974609
20707,6658.86621094
22419,7331.10107422
23275,8921.41210938
24131,8814.18164062
24987,9212.97558594
25843,9643.484375
26699,11788.4199219
28411,7420.16894531
29267,7224.07861328
30123,6509.25048828
30979,6671.33105469
31835,6725.83203125
32691,6889.66015625
34403,7432.48291016
35259,9200.98339844
36115,8934.42382812
36971,9329.04785156
37827,10015.1191406
38683,11983.4599609
40395,8182.04345703
