Id,Sales
164,8828.26269531
1020,9108.21582031
1876,9656.57519531
2732,11940.4140625
4444,9264.42285156
5300,8480.09863281
6156,6858.30419922
7012,7059.16699219
7868,7034.72412109
8724,7457.43603516
10436,9813.37890625
11292,10316.8115234
12148,9423.45800781
13004,9926.06933594
13860,10386.0615234
14716,13446.5400391
16428,9853.734375
17284,8877.03808594
18140,6687.81298828
18996,6823.41894531
19852,6747.31347656
20708,7084.25146484
22420,9211.91015625
23276,9662.69726562
24132,8777.35839844
24988,9116.37988281
25844,9606.13964844
26700,11945.4160156
28412,9317.82910156
29268,8537.5703125
30124,6784.48583984
30980,6928.59863281
31836,6883.42626953
32692,7363.92626953
34404,9394.09082031
35260,9736.72363281
36116,9185.83007812
36972,9555.19140625
37828,10252.6826172
38684,12480.3818359
40396,10150.203125
