Id,Sales
168,5603.1484375
1024,5610.625
1880,6356.97070312
2736,6619.86816406
4448,2098.69750977
5304,4457.05615234
6160,4678.36376953
7016,4629.52832031
7872,4667.03320312
8728,4872.83984375
10440,2043.15368652
11296,5415.65771484
12152,5866.47900391
13008,5877.59423828
13864,6410.09570312
14720,7034.96875
16432,2387.75219727
17288,4757.03271484
18144,4616.82910156
19000,4370.43408203
19856,4445.47558594
20712,4677.70996094
22424,1939.36584473
23280,5199.04589844
24136,5555.34179688
24992,5564.29541016
25848,6110.74267578
26704,6479.15771484
29272,4410.59033203
30128,4619.08447266
30984,4566.07666016
31840,4650.08398438
32696,4862.36230469
34408,2057.36694336
35264,5466.390625
36120,5925.31591797
36976,5958.2109375
37832,6438.06689453
38688,6753.43798828
40400,2291.79956055
