Id,Sales
169,3346.44995117
1025,3430.07910156
1881,3741.2644043
2737,4303.48925781
4449,1811.92480469
5305,2961.49829102
6161,2789.04541016
7017,2842.73486328
7873,2906.30273438
8729,3259.40209961
10441,1966.44616699
11297,3453.52661133
12153,3416.07983398
13009,3759.56005859
13865,4031.69433594
14721,4407.49072266
16433,1870.87524414
17289,3084.32739258
18145,2856.27929688
19001,2822.81567383
19857,2864.93457031
20713,3125.14404297
22425,1786.4387207
23281,3332.37890625
24137,3331.8034668
24993,3406.10229492
25849,3740.0402832
26705,4301.79296875
28417,1773.91552734
29273,2930.94213867
30129,2755.55639648
30985,2818.62451172
31841,2809.59179688
32697,3102.06176758
34409,1885.09973145
35265,3333.81274414
36121,3337.03979492
36977,3420.83105469
37833,3710.06225586
38689,4120.23535156
40401,1972.26586914
