Id,Sales
178,5357.90625
1034,5401.63964844
1890,5537.33349609
2746,7184.99169922
4458,5033.38574219
5314,4268.86816406
6170,3826.22192383
7026,3883.04956055
7882,3891.80834961
8738,4251.453125
10450,5097.08544922
11306,6443.39892578
12162,5953.79150391
13018,6025.49951172
13874,5882.90576172
14730,6140.17480469
16442,5368.64599609
17298,4410.24951172
18154,3974.53833008
19010,3935.65258789
19866,3857.82177734
20722,4212.64306641
22434,5083.72314453
23290,6073.90283203
24146,5608.15722656
25002,5655.03417969
25858,5680.87158203
26714,6875.81542969
29282,4413.59912109
30138,3962.88378906
30994,3964.39648438
31850,3978.15527344
32706,4337.82568359
34418,5269.17382812
35274,6310.85449219
36130,5839.81152344
36986,5859.3515625
37842,5850.80566406
38698,7091.24951172
40410,5594.15771484
