Id,Sales
218,5403.11328125
1074,5890.38623047
1930,6554.45263672
2786,8182.65185547
4498,5112.96533203
5354,4031.27856445
6210,3673.42895508
7066,3822.53686523
7922,3829.08569336
8778,4161.5703125
10490,5153.56347656
11346,6057.78466797
12202,5847.36474609
13058,6090.93115234
13914,6672.24658203
14770,7774.23974609
16482,5470.63964844
17338,4468.43408203
18194,3945.77490234
19050,4032.02807617
19906,4010.98046875
20762,4310.87988281
22474,5224.89746094
23330,5952.14599609
24186,5765.34228516
25042,6090.43017578
25898,6643.92871094
26754,8055.65576172
29322,4314.43945312
30178,3968.66235352
31034,3939.0300293
31890,3957.68652344
32746,4218.39208984
34458,5296.71972656
35314,6476.78320312
36170,6286.42431641
37026,6548.24560547
37882,7121.48974609
38738,8291.99121094
40450,5326.95361328
