Id,Sales
227,7381.35009766
1083,7478.40185547
1939,8348.16796875
2795,10595.2880859
4507,4762.40625
5363,5778.44824219
6219,5625.11669922
7075,5785.99414062
7931,5898.63378906
8787,6307.24072266
10499,4891.46728516
11355,7546.37451172
12211,7737.77197266
13067,8188.24023438
13923,8662.38769531
14779,10413.3554688
16491,4654.82666016
17347,5652.77929688
18203,5298.56982422
19059,5352.43310547
19915,5432.31982422
20771,5820.50439453
22483,4515.64208984
23339,7134.24414062
24195,7173.24462891
25051,7297.25097656
25907,8045.65234375
26763,10199.4521484
28475,4769.36328125
29331,5702.69970703
30187,5478.16015625
31043,5554.33837891
31899,5722.77392578
32755,6179.66113281
34467,4944.95068359
35323,7525.61474609
36179,7515.70996094
37035,7706.22363281
37891,8534.25683594
38747,10737.8505859
40459,5381.86376953
