Id,Sales
239,8401.64550781
1095,8408.89160156
1951,8415.04980469
2807,10853.6054688
3663,2665.37524414
4519,6508.56982422
5375,6595.28808594
6231,6439.56445312
7087,6443.51171875
7943,6469.45703125
8799,6508.02197266
9655,2625.12451172
10511,6546.60791016
11367,8518.03710938
12223,8533.63867188
13079,8826.71875
13935,8811.02148438
14791,11114.7578125
15647,2836.59741211
16503,7371.71386719
17359,7101.93554688
18215,6695.62744141
19071,6544.79443359
19927,6544.79443359
20783,6586.59130859
21639,2733.49584961
22495,6517.58837891
23351,8478.55566406
24207,8475.95410156
25063,8490.4609375
25919,8502.58886719
26775,10651.3242188
27631,2737.37255859
28487,6517.58837891
29343,6700.50146484
30199,6594.48828125
31055,6598.43554688
31911,6598.43554688
32767,6640.23242188
33623,2712.80493164
34479,6591.0703125
35335,8506.27832031
36191,8503.67675781
37047,8533.87304688
37903,8571.07617188
38759,11059.3251953
39615,2831.30175781
40471,6841.84912109
