Id,Sales
258,14426.8125
1114,14805.4023438
1970,16733.953125
2826,17926.0214844
4538,10352.5009766
5394,10702.4873047
6250,10973.0498047
7106,11274.125
7962,11284.0605469
8818,11965.0605469
10530,10578.1630859
11386,14120.3046875
12242,15049.3125
13098,16104.2294922
13954,17452.1425781
14810,19003.4550781
16522,11253.8369141
17378,11656.2382812
18234,10707.6445312
19090,10102.1552734
19946,10274.1494141
20802,10940.6035156
22514,9960.19433594
23370,13295.7255859
24226,14009.3085938
25082,14373.8886719
25938,16186.6416016
26794,17611.2148438
28506,10220.7128906
29362,10651.3662109
30218,10639.6367188
31074,10659.5029297
31930,10858.7773438
32786,11732.3769531
34498,10472.4833984
35354,14049.4667969
36210,14959.0673828
37066,15465.5048828
37922,17101.8496094
38778,18377.5703125
40490,11670.5380859
