Id,Sales
265,8156.01416016
1121,8080.09326172
1977,8279.67773438
2833,10472.2607422
4545,6278.45068359
5401,6724.31103516
6257,6223.00390625
7113,6109.50292969
7969,6018.33300781
8825,6248.47558594
10537,6337.55273438
11393,8705.54589844
12249,8463.26171875
13105,8600.53320312
13961,8716.54785156
14817,11998.0751953
16529,6504.96777344
17385,6616.12939453
18241,5820.69482422
19097,5640.17724609
19953,5564.87402344
20809,5829.30957031
22521,5886.75048828
23377,8283.88574219
24233,7923.74365234
25089,7974.02246094
25945,8271.97949219
26801,10408.359375
28513,6147.15771484
29369,6679.32519531
30225,6164.26220703
31081,6023.22216797
31937,6097.44287109
32793,6597.08544922
34505,6197.70068359
35361,8383.59472656
36217,8321.04394531
37073,8312.94140625
37929,8496.48242188
38785,10694.3740234
40497,6349.046875
