Id,Sales
276,9562.05371094
1132,9270.72265625
1988,9793.95019531
2844,11139.1191406
4556,6517.99072266
5412,8257.84375
6268,8513.94726562
7124,8044.79345703
7980,8328.76660156
8836,9204.77832031
10548,6783.50244141
11404,9929.38671875
12260,10680.0761719
13116,11227.59375
13972,11883.9228516
14828,13079.6904297
16540,6961.93505859
17396,9166.19238281
18252,8515.76464844
19108,7740.41259766
19964,8146.90087891
20820,8953.77734375
22532,6350.77246094
23388,9269.45410156
24244,9679.40625
25100,9381.45019531
25956,10052.4248047
26812,12008.5
28524,6632.171875
29380,8411.64453125
30236,8609.0078125
31092,8096.20166016
31948,8553.95703125
32804,9371.94238281
34516,6738.20263672
35372,9706.48242188
36228,10269.2382812
37084,10029.2207031
37940,10890.2431641
38796,12925.0039062
40508,7440.49414062
