Id,Sales
282,5615.39453125
1138,6063.96435547
1994,6323.61181641
2850,7786.00292969
4562,5439.95556641
5418,4425.00244141
6274,4258.58691406
7130,4313.30273438
7986,4448.81054688
8842,4816.32617188
10554,5693.46875
11410,6620.70458984
12266,6510.49023438
13122,6843.59179688
13978,6712.23876953
14834,6600.47314453
16546,5594.80419922
17402,4545.04296875
18258,4106.578125
19114,4074.30517578
19970,4087.48608398
20826,4398.53955078
22538,5247.85595703
23394,5963.69824219
24250,5905.60009766
25106,6074.73339844
25962,6212.15380859
26818,7238.42089844
29386,4581.38330078
30242,4324.70019531
31098,4363.05371094
31954,4379.84521484
32810,4699.96972656
35378,6617.03369141
36234,6416.4609375
37090,6704.67333984
37946,6647.83203125
38802,7807.37646484
40514,6673.50488281
