Id,Sales
285,6494.64648438
1141,6437.80517578
1997,6491.43310547
2853,8036.61572266
4565,6931.63330078
5421,6054.50878906
6277,5098.96484375
7133,4973.015625
7989,5041.16992188
8845,5624.81298828
10557,7234.74609375
11413,7572.93164062
12269,7086.21679688
13125,7327.44580078
13981,7319.5234375
14837,8599.1875
16549,7174.19726562
17405,6318.44775391
18261,5014.86669922
19117,4877.390625
19973,4863.96728516
20829,5384.47607422
22541,6971.50683594
23397,7244.39941406
24253,6760.88867188
25109,6740.95458984
25965,6825.71826172
26821,8249.75
28533,7165.65087891
29389,6224.34228516
30245,5249.06298828
31101,5109.92382812
31957,5115.89648438
32813,5711.3046875
34525,7206.26025391
35381,7500.77783203
36237,7065.34472656
37093,7146.41796875
37949,7243.54052734
38805,8865.47070312
40517,8011.01660156
