Id,Sales
288,9539.71972656
1144,9613.04882812
2000,10206.8193359
2856,12907.328125
4568,7931.93359375
5424,7992.02832031
6280,7309.39257812
7136,7367.18896484
7992,7410.0
8848,7796.40332031
10560,8153.60888672
11416,10347.8955078
12272,10054.0322266
13128,10416.1347656
13984,10915.6728516
14840,15058.0439453
16552,8718.96582031
17408,8583.09863281
18264,7186.47265625
19120,7146.60058594
19976,7024.85400391
20832,7382.18261719
22544,7793.390625
23400,9592.36230469
24256,9418.94335938
25112,9584.62402344
25968,10049.2314453
26824,12758.9033203
28536,7995.83935547
29392,8052.06982422
30248,7202.23681641
31104,7214.21484375
31960,7369.57421875
32816,7913.77978516
34528,8064.82617188
35384,9942.54003906
36240,9628.08398438
37096,9920.14550781
37952,10571.7705078
38808,13312.1259766
40520,8428.95019531
