Id,Sales
289,4645.75976562
1145,4681.92578125
2001,4713.30078125
2857,5636.63037109
4569,4756.28564453
5425,4596.43066406
6281,4080.48413086
7137,4079.91381836
7993,4063.29882812
8849,4304.33642578
10561,4823.12988281
11417,5157.46142578
12273,4786.92529297
13129,4769.79248047
13985,4741.26123047
14841,5909.97705078
16553,4695.80908203
17409,4404.77148438
18265,3814.96362305
19121,3793.1027832
19977,3791.34716797
20833,4048.82543945
22545,4570.39648438
23401,5053.84521484
24257,4650.08105469
25113,4641.41601562
25969,4682.70849609
26825,5484.08740234
28537,4732.81445312
29393,4555.04980469
30249,3951.74121094
31105,3944.79833984
31961,3942.18481445
32817,4246.97558594
34529,4803.93066406
35385,5496.97558594
36241,5127.98095703
37097,5131.62402344
37953,5112.76757812
38809,5798.37548828
40521,5136.53564453
