Id,Sales
294,18049.5390625
1150,17408.0332031
2006,17791.7363281
2862,20114.2402344
4574,16526.921875
5430,15134.5693359
6286,15130.6923828
7142,14368.8789062
7998,14670.9443359
8854,15959.4882812
10566,16657.8222656
11422,18713.2304688
12278,18828.1523438
13134,18223.8964844
13990,18279.0605469
14846,21333.7011719
16558,16409.4746094
17414,15542.6132812
18270,14335.9814453
19126,13144.8681641
19982,13456.1904297
20838,14708.421875
22550,15411.5507812
23406,17257.359375
24262,17494.0605469
25118,16811.1699219
25974,17478.0527344
26830,19897.7441406
28542,16040.9423828
29398,14793.6210938
30254,14634.4658203
31110,13794.5966797
31966,14084.6640625
32822,15632.8525391
34534,16080.953125
35390,17872.9472656
36246,17971.84375
37102,17911.8300781
37958,18404.1679688
38814,20802.6347656
40526,16604.5351562
