Id,Sales
295,7618.02978516
1151,7922.47705078
2007,8261.08691406
2863,11588.0888672
4575,7052.81542969
5431,5923.71533203
6287,5383.30859375
7143,5581.04882812
7999,5658.55126953
8855,6029.14013672
10567,7082.30078125
11423,9233.8828125
12279,8198.9765625
13135,8544.10742188
13991,8817.67871094
14847,11716.90625
16559,7282.31445312
17415,6053.71533203
18271,5204.70458984
19127,5211.25292969
19983,5199.05859375
20839,5708.3984375
22551,7056.91308594
23407,9175.05273438
24263,8196.1328125
25119,8461.578125
25975,8727.62402344
26831,11507.90625
29399,6012.48974609
30255,5367.15527344
31111,5516.74560547
31967,5587.77832031
32823,6084.63476562
34535,7220.01171875
35391,9844.84765625
36247,8829.26855469
37103,9214.97851562
37959,9416.109375
38815,12012.9521484
40527,7923.0859375
