Id,Sales
311,7669.33251953
1167,7653.73095703
2023,7695.27539062
2879,9257.84277344
4591,7412.12890625
5447,6715.35400391
6303,5798.90771484
7159,5786.36914062
8015,5784.51025391
8871,6233.24121094
10583,7659.38720703
11439,8785.4296875
12295,8391.72949219
13151,8404.87304688
14007,8364.50097656
14863,9937.47167969
16575,7661.34716797
17431,6973.94628906
18287,5670.76025391
19143,5526.75048828
19999,5518.3671875
20855,6092.54736328
22567,7157.58007812
23423,8219.90234375
24279,7865.37597656
25135,7791.47949219
25991,7811.20898438
26847,9492.08300781
28559,7409.11914062
29415,6769.45849609
30271,5798.73291016
31127,5781.48339844
31983,5766.66503906
32839,6367.07128906
34551,7424.77539062
35407,8436.29394531
36263,8113.65087891
37119,8192.18945312
37975,8210.60253906
38831,9793.4375
40543,7784.14941406
