Id,Sales
334,9945.68066406
1190,9440.82617188
2046,9771.07910156
2902,11778.5576172
4614,8537.51660156
5470,8521.74121094
6326,8387.08691406
7182,7745.06445312
8038,7899.22998047
8894,8918.27441406
10606,9082.97265625
11462,10697.1484375
12318,10888.6191406
13174,10824.0273438
14030,10942.5820312
14886,12970.6152344
16598,9514.95898438
17454,9081.88867188
18310,8301.64648438
19166,7394.85449219
20022,7371.16259766
20878,8159.90673828
22590,8379.3828125
23446,9850.67773438
24302,10066.15625
25158,9593.9296875
26014,9918.68554688
26870,11922.6123047
28582,8574.76757812
29438,8569.02832031
30294,8269.39648438
31150,7530.26464844
32006,7902.0078125
32862,8874.40332031
34574,8668.203125
35430,10230.7529297
36286,10250.9580078
37142,9886.18554688
37998,10431.3701172
38854,12686.3486328
40566,9559.25097656
