Id,Sales
335,12815.2568359
1191,13212.2519531
2047,13560.5615234
2903,14849.4570312
4615,7862.15527344
5471,10596.4248047
6327,10800.6943359
7183,10831.1113281
8039,11010.1386719
8895,11535.8652344
10607,7841.31689453
11463,12305.9960938
12319,12905.7138672
13175,13931.2519531
14031,13985.0380859
14887,15314.5244141
16599,8342.46679688
17455,11016.1220703
18311,10992.7832031
19167,10788.2626953
20023,10910.2421875
20879,11562.8291016
22591,7858.06005859
23447,12330.6943359
24303,12823.5673828
25159,13230.0429688
26015,13614.5791016
26871,15004.0839844
28583,7765.44238281
29439,10757.4248047
30295,10921.8212891
31151,10932.9169922
32007,11108.46875
32863,11711.7851562
34575,7699.0859375
35431,12322.0859375
36287,12855.7363281
37143,13248.7822266
37999,13605.6962891
38855,14940.0
40567,7870.91748047
