Id,Sales
337,10132.3310547
1193,9933.91113281
2049,10303.1835938
2905,12550.2763672
4617,10907.7880859
5473,10307.1113281
6329,8859.47753906
7185,8692.32226562
8041,8650.50976562
8897,9606.20117188
10609,11370.0117188
11465,12765.2988281
12321,11466.8632812
13177,10995.3046875
14033,10619.3466797
14889,12225.1367188
16601,11181.4775391
17457,10569.4130859
18313,8722.97558594
19169,8475.484375
20025,8311.84863281
20881,9270.08691406
22593,10827.6123047
23449,11868.3212891
24305,10804.8701172
25161,10486.3544922
26017,10266.0585938
26873,12101.6015625
29441,10654.7871094
30297,9034.390625
31153,8570.359375
32009,8530.32128906
32865,9592.27929688
34577,11240.6962891
35433,12674.3652344
36289,11625.3398438
37145,11406.1064453
38001,10976.7148438
38857,13073.7646484
40569,11791.0927734
