Id,Sales
339,5532.82519531
1195,5700.24365234
2051,5863.65771484
2907,6913.57958984
4619,3553.65307617
5475,4996.87988281
6331,4526.10498047
7187,4642.4296875
8043,4873.37353516
8899,5109.68847656
10611,3612.67797852
11467,6155.54443359
12323,5802.9609375
13179,6072.70458984
14035,6245.79248047
14891,6988.47851562
16603,3594.07006836
17459,5390.53857422
18315,4493.64013672
19171,4506.46777344
20027,4521.921875
20883,4829.75048828
22595,3441.39355469
23451,6137.29101562
24307,5547.08642578
25163,5669.40966797
26019,5736.48339844
26875,6835.76171875
28587,3628.71313477
29443,5178.78320312
30299,4583.65917969
31155,4679.33251953
32011,4728.22119141
32867,5044.20654297
34579,3718.26342773
35435,6461.86328125
36291,5838.45703125
37147,6003.12353516
38003,6126.72460938
38859,7103.29882812
40571,4309.97021484
