Id,Sales
355,10217.4287109
1211,10322.5205078
2067,11849.9990234
2923,12867.2089844
4635,5739.91015625
5491,7315.32226562
6347,7772.33544922
7203,7381.07958984
8059,7591.94824219
8915,8114.73486328
10627,5936.19921875
11483,9910.11816406
12339,11156.6337891
13195,11305.1640625
14051,12745.6855469
14907,13698.7070312
16619,6893.31933594
17475,8406.18066406
18331,7560.14111328
19187,6926.69677734
20043,7017.73583984
20899,7501.50537109
22611,5689.28320312
23467,9281.31054688
24323,10076.1230469
25179,9866.13183594
26035,11500.3349609
26891,12822.6699219
28603,5862.58007812
29459,7531.84570312
30315,7699.45019531
31171,7297.8828125
32027,7391.73046875
32883,7956.8359375
34595,6050.63671875
35451,9728.671875
36307,10690.4560547
37163,10581.2773438
38019,12292.7314453
38875,13577.4101562
40587,6322.15332031
