Id,Sales
370,5391.46923828
1226,5431.82568359
2082,5622.28955078
2938,6937.04345703
4650,5706.90478516
5506,4867.49951172
6362,4264.93457031
7218,4289.75292969
8074,4326.99609375
8930,4714.68408203
10642,5863.03564453
11498,6478.70068359
12354,5954.91845703
13210,5992.67480469
14066,5901.86865234
14922,6844.60205078
16634,5841.67089844
17490,4903.09960938
18346,4379.32519531
19202,4358.31396484
20058,4394.65917969
20914,4705.15625
22626,5680.06689453
23482,6358.92578125
24338,5830.42724609
25194,5877.18261719
26050,5895.94091797
26906,6938.79589844
29474,4881.09521484
30330,4272.94433594
31186,4275.85986328
32042,4318.48242188
32898,4718.15869141
34610,5695.91015625
35466,6411.00439453
36322,5909.40820312
37178,5938.86083984
38034,5955.06494141
38890,7035.57421875
40602,6009.73828125
