Id,Sales
381,5851.59179688
1237,6040.296875
2093,6072.40771484
2949,7088.84082031
4661,5261.41455078
5517,5165.55273438
6373,4895.29248047
7229,5019.45849609
8085,5068.57568359
8941,5718.50097656
10653,5560.02685547
11509,7056.84619141
12365,6742.7734375
13221,6889.82763672
14077,6880.08837891
14933,7343.13574219
16645,5672.04296875
17501,5108.93994141
18357,4590.52783203
19213,4570.95556641
20069,4602.92089844
20925,5226.91503906
22637,5070.01269531
23493,6327.72314453
24349,6213.26367188
25205,6325.76318359
26061,6341.32861328
26917,7316.07861328
28629,5196.41601562
29485,5032.57373047
30341,4650.48681641
31197,4755.64794922
32053,4786.94873047
32909,5409.93457031
34621,5226.33447266
35477,6731.64160156
36333,6520.01220703
37189,6746.04443359
38045,6731.39990234
38901,7760.03662109
40613,5968.18408203
