Id,Sales
385,6593.98925781
1241,6757.75976562
2097,7076.44335938
2953,8801.50683594
4665,5986.92480469
5521,5959.81982422
6377,5870.97070312
7233,5798.55175781
8089,5911.73046875
8945,6632.6640625
10657,6038.66894531
11513,6989.12207031
12369,7179.07324219
13225,7783.57226562
14081,8310.48144531
14937,9185.59863281
16649,6896.42626953
17505,6641.55859375
18361,5358.8515625
19217,5010.64697266
20073,5161.75439453
20929,5764.22167969
22641,5554.90429688
23497,6071.05029297
24353,6172.55175781
25209,6225.09863281
26065,6639.42236328
26921,8390.19726562
28633,5970.46044922
29489,5969.74121094
30345,5844.22265625
31201,5679.3671875
32057,5839.05908203
32913,6427.15087891
34625,6007.85205078
35481,6618.23144531
36337,6693.63134766
37193,6808.68554688
38049,7321.02587891
38905,9453.5546875
40617,7007.54150391
