Id,Sales
392,5639.65966797
1248,5678.53320312
2104,5976.89306641
2960,6685.39892578
4672,5400.11865234
5528,5314.74121094
6384,5005.82763672
7240,5020.04833984
8096,5087.99462891
8952,5485.20800781
10664,5344.6796875
11520,5786.47949219
12376,5675.50537109
13232,6000.13525391
14088,6248.66943359
14944,6841.36914062
16656,5391.66796875
17512,5334.85205078
18368,4893.59521484
19224,4863.91015625
20080,5025.15332031
20936,5194.53271484
22648,5159.59570312
23504,5557.76806641
24360,5485.16113281
25216,5522.21679688
26072,5846.15771484
26928,6528.10449219
28640,5217.28955078
29496,5222.38818359
30352,4894.11328125
31208,4930.82275391
32064,5082.81005859
32920,5295.72851562
34632,5207.96728516
35488,5725.41210938
36344,5677.40234375
37200,5722.82177734
38056,6137.61230469
38912,6847.71142578
40624,5617.64746094
