Id,Sales
404,10391.1318359
1260,10576.1933594
2116,11029.3828125
2972,12535.8076172
4684,10073.1757812
5540,9971.8125
6396,8935.48925781
7252,9030.21191406
8108,9234.93847656
8964,9704.64648438
10676,10664.0253906
11532,11457.3691406
12388,10892.9257812
13244,12496.3046875
14100,12662.5693359
14956,14500.9853516
16668,10725.6689453
17524,10266.6591797
18380,8558.14257812
19236,8552.26171875
20092,8619.85839844
20948,9047.91308594
22660,9875.13378906
23516,10952.7255859
24372,10507.1113281
25228,10706.1240234
26084,11236.4697266
26940,12781.7236328
28652,10047.2617188
29508,9982.16796875
30364,8759.28417969
31220,8831.82617188
32076,9143.70410156
32932,9682.70898438
34644,10370.6542969
35500,11419.9570312
36356,10982.8564453
37212,11179.3007812
38068,11840.265625
38924,13338.9746094
40636,11898.1435547
