Id,Sales
432,3382.7565918
1288,3316.203125
2144,3508.92480469
3000,3761.97412109
4712,2579.85180664
5568,2578.77270508
6424,2507.8425293
7280,2483.2253418
8136,2592.33520508
8992,2774.77075195
10704,2701.13867188
11560,3492.92480469
12416,3542.45947266
13272,3772.65039062
14128,3911.71557617
14984,4258.09667969
16696,2962.38085938
17552,2856.23144531
18408,2483.89331055
19264,2353.76464844
20120,2517.07885742
20976,2664.47094727
22688,2582.99072266
23544,3307.46166992
24400,3315.26245117
25256,3252.73632812
26112,3530.25244141
26968,3821.17993164
28680,2722.68432617
29536,2747.66552734
30392,2621.80566406
31248,2596.83886719
32104,2689.27734375
32960,2817.01586914
34672,2724.79589844
35528,3607.12011719
36384,3611.22094727
37240,3540.70947266
38096,3748.44213867
38952,4047.32592773
40664,2749.63891602
