Id,Sales
442,8110.49560547
1298,8046.3046875
2154,8300.52636719
3010,10573.4052734
4722,9832.35449219
5578,7702.44677734
6434,6588.55615234
7290,6416.90527344
8146,6547.45800781
9002,7530.01171875
10714,9610.21679688
11570,9628.69824219
12426,8534.32421875
13282,8499.62109375
14138,8561.4375
14994,10409.8046875
16706,10095.7001953
17562,8120.30517578
18418,6862.62255859
19274,6605.47167969
20130,6721.35107422
20986,7727.70019531
22698,9858.05566406
23554,9534.22460938
24410,8305.85546875
25266,8402.25097656
26122,8489.9453125
26978,10528.3242188
29546,7816.10839844
30402,6728.95458984
31258,6467.04150391
32114,6586.796875
32970,7568.09228516
34682,9815.91992188
35538,9644.19335938
36394,8570.42578125
37250,8541.75195312
38106,8638.890625
38962,10665.0947266
40674,9645.47460938
