Id,Sales
453,5224.47900391
1309,5244.12890625
2165,5523.09863281
3021,6364.9453125
4733,4648.34570312
5589,4374.59228516
6445,4007.5793457
7301,4014.51757812
8157,4112.2265625
9013,4181.62646484
10725,4837.63574219
11581,5652.41113281
12437,5712.39453125
13293,5745.89453125
14149,5939.95410156
15005,6651.53515625
16717,5434.23876953
17573,4870.20214844
18429,3969.80688477
19285,3978.09716797
20141,3958.02807617
20997,4030.98876953
22709,4604.33349609
23565,5191.74072266
24421,5217.140625
25277,5247.3359375
26133,5440.08203125
26989,6344.6328125
28701,4690.55810547
29557,4397.34960938
30413,3993.86206055
31269,3996.34423828
32125,4027.93896484
32981,4155.63183594
34693,4717.50195312
35549,5370.92675781
36405,5341.65283203
37261,5551.69384766
38117,5790.60644531
38973,6655.54931641
40685,5133.03271484
