Id,Sales
465,7490.91699219
1321,7420.54931641
2177,7432.17285156
3033,9144.1640625
4745,6657.42382812
5601,6644.72753906
6457,5785.59326172
7313,5777.10839844
8169,5893.44238281
9025,6127.93505859
10737,7310.46191406
11593,8724.95703125
12449,8325.78222656
13305,8823.3671875
14161,8975.89648438
15017,9833.85253906
16729,8325.93554688
17585,7527.40869141
18441,6196.46972656
19297,5844.93603516
20153,5623.12402344
21009,6136.48144531
22721,6831.02050781
23577,8223.46972656
24433,7612.18261719
25289,7515.07177734
26145,7509.07226562
27001,9337.73535156
28713,6982.22265625
29569,7003.75683594
30425,6045.61230469
31281,5864.53369141
32137,5860.51123047
32993,6375.62451172
34705,7202.04833984
35561,8501.73828125
36417,7989.94140625
37273,8275.12011719
38129,8411.39355469
38985,10492.0654297
40697,7981.359375
