Id,Sales
479,6149.56201172
1335,6341.3984375
2191,6861.0546875
3047,7381.28857422
4759,4935.50244141
5615,4941.13037109
6471,4816.10742188
7327,4925.79736328
8183,4982.49072266
9039,5185.48242188
10751,5253.80957031
11607,6642.59521484
12463,6827.640625
13319,7366.73291016
14175,7857.04882812
15031,7650.86572266
16743,5270.30029297
17599,5022.76464844
18455,4597.10058594
19311,4645.05517578
20167,4600.38232422
21023,4693.76855469
22735,4757.56494141
23591,6144.34277344
24447,6200.86181641
25303,6427.80957031
26159,6960.77734375
27015,7407.75244141
28727,4906.72314453
29583,4931.02099609
30439,4720.86279297
31295,4797.94287109
32151,4878.95117188
33007,5164.85791016
34719,5020.78466797
35575,6329.17236328
36431,6296.42822266
37287,6791.68847656
38143,7152.66064453
38999,7846.43994141
40711,5466.37304688
