Id,Sales
481,7226.01464844
1337,7194.46582031
2193,7738.76025391
3049,8719.58984375
4761,4079.36889648
5617,6338.69580078
6473,5741.67578125
7329,5737.64794922
8185,5835.96679688
9041,6017.64013672
10753,4397.30322266
11609,7780.19726562
12465,7495.45996094
13321,7542.3671875
14177,8081.08691406
15033,10161.3037109
16745,4562.19091797
17601,6824.60644531
18457,5807.82763672
19313,5646.03417969
20169,5680.74511719
21025,5848.24853516
22737,4107.84130859
23593,7470.34033203
24449,7163.29443359
25305,7135.66943359
26161,7720.44580078
27017,8715.515625
28729,4117.65673828
29585,6345.63916016
30441,5656.24609375
31297,5645.09423828
32153,5706.5859375
33009,6007.03515625
34721,4298.83935547
35577,7572.12890625
36433,7347.02001953
37289,7468.13183594
38145,8024.09033203
39001,8974.26074219
40713,4587.69189453
