Id,Sales
488,7557.17333984
1344,7579.08935547
2200,7722.03271484
3056,8775.06542969
4768,7698.48632812
5624,6193.86279297
6480,6013.62890625
7336,6008.52832031
8192,6068.57421875
9048,6888.02148438
10760,7911.05664062
11616,8032.8125
12472,8099.35595703
13328,8412.6015625
14184,8468.61523438
15040,9588.23730469
16752,8274.47949219
17608,6472.77880859
18464,5828.72265625
19320,5817.26269531
20176,5839.234375
21032,6511.06640625
22744,7530.89306641
23600,7468.76513672
24456,7377.68457031
25312,7395.25
26168,7552.81054688
27024,8839.63867188
28736,7712.0390625
29592,6308.31933594
30448,6076.13476562
31304,6067.12402344
32160,6146.61669922
33016,6747.99023438
34728,7723.49951172
35584,7691.30908203
36440,7616.04443359
37296,7646.46582031
38152,8065.86621094
39008,9344.41992188
40720,8310.42089844
