Id,Sales
493,4868.30419922
1349,4960.921875
2205,5279.44824219
3061,5989.46191406
4773,2547.32104492
5629,4147.58886719
6485,3733.55541992
7341,3734.17407227
8197,3732.84741211
9053,3612.63354492
10765,2600.82714844
11621,5334.84716797
12477,5215.46923828
13333,5518.2890625
14189,5808.25341797
15045,6273.37402344
16757,2786.77514648
17613,4333.13378906
18469,3678.7434082
19325,3669.73339844
20181,3652.59887695
21037,3502.82763672
22749,2498.19604492
23605,4999.64208984
24461,4902.2421875
25317,5000.88525391
26173,5344.31005859
27029,5998.04541016
28741,2542.36010742
29597,4145.79345703
30453,3735.74121094
31309,3735.82958984
32165,3747.42651367
33021,3677.42773438
34733,2605.27319336
35589,5000.26464844
36445,5187.15185547
37301,5313.95947266
38157,5630.90380859
39013,6275.61230469
40725,2832.67700195
