Id,Sales
498,8887.43652344
1354,8883.06152344
2210,8886.4921875
3066,9933.83300781
4778,9936.59765625
5634,9128.73535156
6490,7854.16748047
7346,7841.16308594
8202,7530.09960938
9058,8451.24902344
10770,9926.76757812
11626,10668.2421875
12482,11317.9296875
13338,11323.0283203
14194,11044.3115234
15050,9783.87597656
16762,8723.25195312
17618,7926.24804688
18474,6836.39453125
19330,6758.89599609
20186,6693.88085938
21042,7711.76708984
22754,8569.56933594
23610,8863.52636719
24466,8502.58203125
25322,8754.39941406
26178,8776.18652344
27034,9088.06738281
29602,8342.84570312
30458,6991.62158203
31314,7380.88378906
32170,7143.68701172
33026,8027.66699219
34738,9098.75390625
35594,9393.3125
36450,9113.41796875
37306,9119.84472656
38162,9119.421875
39018,9361.91894531
40730,9128.13378906
