Id,Sales
49,6126.58935547
905,5994.1796875
1761,6106.89111328
2617,7384.00634766
4329,5808.95263672
5185,5616.4375
6041,5093.01025391
6897,4889.88964844
7753,5006.49609375
8609,5643.9453125
10321,6083.30371094
11177,6766.68164062
12033,6408.39306641
12889,6259.20556641
13745,6133.96337891
14601,8194.5078125
16313,5964.73388672
17169,5732.6015625
18025,5057.203125
18881,4756.90673828
19737,4810.18994141
20593,5314.02050781
22305,5754.09472656
23161,6453.93115234
24017,6138.34716797
24873,6026.63037109
25729,6050.06933594
26585,7423.65429688
28297,5893.30712891
29153,5748.51171875
30009,5209.20605469
30865,4975.98535156
31721,5034.09179688
32577,5597.18457031
34289,5962.76123047
35145,6871.97851562
36001,6518.25146484
36857,6484.56542969
37713,6501.05712891
38569,7772.64892578
40281,6265.15820312
