Id,Sales
516,8967.25292969
1372,8977.35742188
2228,9343.47363281
3084,12287.0195312
4796,7513.39355469
5652,7470.29394531
6508,6973.70800781
7364,6918.19873047
8220,6995.6640625
9076,7590.78759766
10788,7834.86962891
11644,9358.67089844
12500,9351.65820312
13356,10373.2041016
14212,10549.2929688
15068,13454.109375
16780,7979.23828125
17636,7654.14013672
18492,6559.04980469
19348,6334.83398438
20204,6348.1875
21060,7243.00585938
22772,7280.10058594
23628,9078.14648438
24484,8919.65332031
25340,9008.80664062
26196,9512.30078125
27052,13018.9345703
28764,7383.41699219
29620,7256.80908203
30476,6583.65136719
31332,6546.1328125
32188,6586.13769531
33044,7487.96484375
34756,7590.38525391
35612,9209.82128906
36468,9096.94335938
37324,9095.79394531
38180,9625.21484375
39036,13063.7597656
40748,8449.76074219
