Id,Sales
521,8190.68994141
1377,8691.91308594
2233,8711.28320312
3089,11052.1376953
4801,4983.25976562
5657,7671.80615234
6513,6445.38427734
7369,6764.31396484
8225,6714.94726562
9081,7199.12353516
10793,5282.75439453
11649,10267.0253906
12505,9781.02148438
13361,10599.2382812
14217,10676.7001953
15073,13642.2275391
16785,6233.68652344
17641,10433.0751953
18497,7188.09912109
19353,6254.92773438
20209,6200.79541016
21065,6624.18945312
22777,4583.95263672
23633,8889.38476562
24489,8194.05175781
25345,8714.77441406
26201,8734.22460938
27057,11086.3408203
28769,4914.546875
29625,7677.0703125
30481,6305.69873047
31337,6626.25878906
32193,6756.21630859
33049,7397.45361328
34761,5052.91992188
35617,9191.29980469
36473,8563.00292969
37329,9667.87695312
38185,10609.3662109
39041,12674.9951172
40753,6448.63525391
