Id,Sales
522,5370.07568359
1378,3946.21777344
2234,4501.3515625
3090,5472.10351562
4802,1895.36157227
5658,3193.72119141
6514,4356.83740234
7370,2870.16967773
8226,2910.84106445
9082,2978.08398438
10794,2101.51367188
11650,4150.04492188
12506,5418.15820312
13362,4006.00634766
14218,3971.29199219
15074,7364.73095703
16786,2059.73095703
17642,3412.65576172
18498,4234.29541016
19354,2688.98876953
20210,2753.1496582
21066,2793.44580078
22778,1753.30725098
23634,3908.79980469
24490,5316.94873047
25346,3919.23779297
26202,4487.82324219
27058,5403.65722656
28770,1829.04431152
29626,3191.49169922
30482,4316.18212891
31338,2813.77783203
32194,2900.51757812
33050,3002.65625
34762,1891.83813477
35618,3714.59619141
36474,5430.52929688
37330,4034.14208984
38186,4582.58740234
39042,5427.10888672
40754,2080.4777832
