Id,Sales
528,9103.06054688
1384,9172.41796875
2240,10053.3867188
3096,14014.6044922
4808,10269.84375
5664,7505.06201172
6520,6919.25683594
7376,6961.00927734
8232,7308.140625
9088,8597.78515625
10800,10547.0800781
11656,10978.5224609
12512,10145.0830078
13368,10063.0048828
14224,10625.0625
15080,14089.2109375
16792,10679.1074219
17648,7931.00292969
18504,6983.20703125
19360,6849.47851562
20216,7029.30810547
21072,8466.58496094
22784,10130.2773438
23640,10465.3222656
24496,9816.38085938
25352,9826.51464844
26208,10434.2294922
27064,13770.3720703
29632,7538.16015625
30488,6887.6796875
31344,6791.41650391
32200,7065.79541016
33056,8513.90820312
34768,10248.3701172
35624,10654.5927734
36480,10111.4072266
37336,10194.5273438
38192,10792.5849609
39048,14108.2851562
40760,11237.9765625
