Id,Sales
529,6452.94238281
1385,6666.56103516
2241,7562.953125
3097,9332.93164062
4809,2583.99291992
5665,4715.38964844
6521,4526.94628906
7377,4520.11181641
8233,4486.06640625
9089,4357.42529297
10801,2711.75073242
11657,6698.04785156
12513,6674.72607422
13369,6876.88769531
14225,7738.99951172
15081,10340.9697266
16793,2689.1237793
17649,4733.32324219
18505,4526.6640625
19361,4519.59130859
20217,4548.29443359
21073,4421.49658203
22785,2601.28393555
23641,6311.79296875
24497,6328.4921875
25353,6661.81689453
26209,7563.94238281
27065,9396.25
28777,2712.13183594
29633,4841.23632812
30489,4661.92675781
31345,4660.71972656
32201,4656.54589844
33057,4585.01416016
34769,2854.00341797
35625,6386.86328125
36481,6377.38378906
37337,6546.20214844
38193,7520.22412109
39049,9384.11914062
40761,2982.18261719
