Id,Sales
530,9230.08886719
1386,9500.33105469
2242,9811.55859375
3098,11382.7138672
4810,8641.52539062
5666,7846.93115234
6522,7210.29882812
7378,7448.75195312
8234,7436.82910156
9090,8126.86279297
10802,8833.23828125
11658,9933.01367188
12514,9782.67578125
13370,10232.0996094
14226,10507.2880859
15082,11952.4609375
16794,9264.91015625
17650,8322.57519531
18506,7419.10546875
19362,7340.26074219
20218,7275.54980469
21074,7934.48095703
22786,8511.06835938
23642,9279.93457031
24498,9220.56933594
25354,9501.48046875
26210,9820.15039062
27066,11395.7041016
28778,8644.69824219
29634,7872.43261719
30490,7231.19970703
31346,7443.26074219
32202,7414.69433594
33058,8211.00292969
34770,8610.32910156
35626,9332.67578125
36482,9296.68164062
37338,9865.66992188
38194,10163.5566406
39050,11631.5605469
40762,8759.68359375
