Id,Sales
553,5551.46875
1409,5706.27832031
2265,5902.01074219
3121,7284.09667969
4833,5755.14404297
5689,5036.40722656
6545,4189.54443359
7401,4256.97216797
8257,4282.22753906
9113,4747.47949219
10825,5821.91748047
11681,7035.14404297
12537,6239.26416016
13393,6341.75048828
14249,6259.75927734
15105,7643.88232422
16817,6190.50097656
17673,5377.56054688
18529,4441.17089844
19385,4373.58251953
20241,4363.15673828
21097,4793.81689453
22809,5827.70263672
23665,6988.36816406
24521,6258.35351562
25377,6366.95605469
26233,6271.3125
27089,7329.44628906
29657,5180.07666016
30513,4452.91210938
31369,4509.24560547
32225,4565.81347656
33081,4938.40478516
34793,5916.90771484
35649,7103.66357422
36505,6431.578125
37361,6485.89355469
38217,6436.90917969
39073,7476.85791016
40785,6374.51611328
