Id,Sales
567,6526.56884766
1423,6549.66699219
2279,6839.55566406
3135,8160.33496094
3991,3044.55322266
4847,6071.26611328
5703,6086.34033203
6559,6093.38671875
7415,6118.98681641
8271,6720.98242188
9127,7703.22705078
9983,3448.47265625
10839,6756.31591797
11695,8189.34228516
12551,8059.46484375
13407,8530.72949219
14263,8741.71582031
15119,11156.0566406
15975,4258.60791016
16831,7383.79443359
17687,8953.91015625
18543,8925.34863281
19399,8805.04101562
20255,9105.64550781
21111,11431.5664062
21967,4221.67871094
22823,7055.97998047
23679,8890.96777344
24535,9096.60742188
25391,9227.41113281
26247,9531.27636719
27103,11662.9472656
27959,5077.58935547
28815,7299.98388672
29671,8947.15820312
30527,9060.01953125
31383,9063.55273438
32239,9397.93066406
33095,11644.6933594
33951,5145.41845703
34807,7658.99560547
35663,9722.66992188
36519,10075.1445312
37375,10278.6806641
38231,10789.9980469
39087,12714.8525391
39943,5798.63916016
40799,8319.55175781
