Id,Sales
571,6357.77734375
1427,6389.73828125
2283,7230.26806641
3139,9035.30273438
4851,4024.46923828
5707,4927.29638672
6563,4930.45849609
7419,4923.65283203
8275,5040.04638672
9131,5607.98535156
10843,4145.28271484
11699,6755.546875
12555,7058.09863281
13411,7321.61181641
14267,8357.32128906
15123,12442.4804688
16835,5112.43310547
17691,6193.61865234
18547,4986.78955078
19403,4648.92675781
20259,4796.58837891
21115,5041.79833984
22827,3892.59423828
23683,6149.56982422
24539,6301.30419922
25395,6311.81445312
26251,7107.19482422
27107,8824.87890625
28819,3989.44628906
29675,4906.95410156
30531,4861.6484375
31387,4869.32958984
32243,5108.60742188
33099,5555.36035156
34811,4036.36572266
35667,6344.33496094
36523,6538.03515625
37379,6770.82177734
38235,7925.515625
39091,10047.3085938
40803,5042.20947266
