Id,Sales
575,8601.38476562
1431,8542.24804688
2287,9550.11425781
3143,10980.6542969
4855,7553.04541016
5711,7308.83789062
6567,7147.30712891
7423,6966.70556641
8279,7080.61230469
9135,7222.38037109
10847,7462.98193359
11703,8461.95410156
12559,8861.79980469
13415,9590.13085938
14271,10112.8886719
15127,11329.5742188
16839,8171.80566406
17695,7443.56591797
18551,6726.11279297
19407,6351.65283203
20263,6484.31689453
21119,6691.82177734
22831,7042.49023438
23687,7758.05419922
24543,8173.67138672
25399,8261.10253906
26255,9225.94824219
27111,10790.0908203
28823,7461.68310547
29679,7279.33251953
30535,7139.15917969
31391,6925.23388672
32247,7106.29394531
33103,7206.61621094
34815,7484.23925781
35671,8320.53125
36527,8519.79101562
37383,8474.60546875
38239,9557.91308594
39095,11305.9785156
40807,8382.15820312
