Id,Sales
576,8185.41162109
1432,8231.10253906
2288,8609.45507812
3144,11797.90625
4856,7179.73193359
5712,7120.18798828
6568,6323.14306641
7424,6340.39208984
8280,6375.08837891
9136,6747.25683594
10848,7569.9921875
11704,9040.296875
12560,8842.98339844
13416,9767.70898438
14272,10128.0234375
15128,12807.6523438
16840,8280.64257812
17696,7447.65283203
18552,6071.01513672
19408,5910.47558594
20264,5914.18554688
21120,6274.2578125
22832,7008.13330078
23688,8265.85351562
24544,8105.75146484
25400,8176.29248047
26256,8502.88769531
27112,11503.9941406
28824,7203.08154297
29680,7135.57470703
30536,6241.30419922
31392,6212.41210938
32248,6299.63574219
33104,6739.23339844
34816,7220.61035156
35672,8411.32910156
36528,8390.39550781
37384,8566.83789062
38240,9068.11816406
39096,12661.4482422
40808,8497.75683594
