Id,Sales
598,7261.89160156
1454,7248.26464844
2310,7833.72949219
3166,9736.859375
4878,5412.72265625
5734,6407.75048828
6590,6390.45605469
7446,6330.93457031
8302,6535.8671875
9158,7131.85595703
10870,5518.28613281
11726,8184.40869141
12582,8071.81298828
13438,8048.82226562
14294,8248.89746094
15150,9298.7890625
16862,5439.86132812
17718,6499.39501953
18574,6161.20166016
19430,5960.3203125
20286,6116.91113281
21142,6675.78564453
22854,5278.48486328
23710,7919.40283203
24566,7804.22216797
25422,7662.86865234
26278,7768.17285156
27134,9392.640625
29702,6575.89013672
30558,6405.41162109
31414,6323.09765625
32270,6481.77148438
33126,7237.89941406
34838,5682.0390625
35694,8362.19238281
36550,8196.72949219
37406,8232.58105469
38262,8390.75878906
39118,10126.4091797
40830,6030.41210938
