Id,Sales
601,5380.47607422
1457,5445.69970703
2313,5953.58251953
3169,6849.59960938
4881,3879.33447266
5737,4768.78955078
6593,4757.18847656
7449,4796.01513672
8305,4960.62207031
9161,5688.67333984
10873,4113.16064453
11729,5852.64404297
12585,5937.14257812
13441,6441.88671875
14297,6726.64990234
15153,7828.81738281
16865,4273.27099609
17721,5196.91162109
18577,4672.29541016
19433,4608.78369141
20289,4712.68554688
21145,5408.70410156
22857,3769.90429688
23713,5235.81738281
24569,5240.79296875
25425,5298.96630859
26281,5743.80761719
27137,6755.55224609
28849,3941.60668945
29705,4695.85107422
30561,4652.66796875
31417,4694.16308594
32273,4820.14697266
33129,5478.70996094
34841,3992.1003418
35697,5398.57861328
36553,5570.52832031
37409,5774.05029297
38265,6234.74267578
39121,7401.44726562
40833,4406.55957031
