Id,Sales
614,4630.09667969
1470,5091.125
2326,5361.54882812
3182,6602.89941406
4894,3647.00048828
5750,3319.81518555
6606,3096.58447266
7462,3167.52392578
8318,3242.17724609
9174,3348.44433594
10886,4007.28833008
11742,5166.35742188
12598,5080.40429688
13454,5605.24316406
14310,5825.17871094
15166,7212.52978516
16878,4304.04931641
17734,3741.87255859
18590,3163.93139648
19446,3052.13012695
20302,2919.32275391
21158,2954.09350586
22870,3508.78613281
23726,4626.16845703
24582,4568.15673828
25438,5072.02246094
26294,5357.1953125
27150,6592.01416016
28862,3554.23974609
29718,3268.87768555
30574,2989.87670898
31430,3045.57470703
32286,3013.41333008
33142,3201.56396484
34854,3731.8840332
35710,4669.796875
36566,4780.12646484
37422,5566.08886719
38278,5813.609375
39134,6962.71875
40846,4241.08886719
