Id,Sales
616,5143.29980469
1472,5240.46777344
2328,5599.58740234
3184,6822.07421875
4896,4863.02734375
5752,4459.59570312
6608,3954.25683594
7464,4031.15698242
8320,4098.37304688
9176,4470.51074219
10888,4896.82080078
11744,6098.7890625
12600,5999.70068359
13456,5949.25878906
14312,5907.11474609
15168,6769.38623047
16880,4964.38818359
17736,4655.00927734
18592,4099.78320312
19448,3921.23754883
20304,3992.52246094
21160,4412.80664062
22872,4821.33984375
23728,5866.71337891
24584,5616.9921875
25440,5645.484375
26296,5658.00927734
27152,6731.33154297
29720,4527.41992188
30576,4024.87109375
31432,4100.91845703
32288,4163.05419922
33144,4538.92333984
34856,4960.2734375
35712,6173.80029297
36568,5958.37060547
37424,6015.70849609
38280,6100.19433594
39136,6916.47509766
40848,5032.57275391
