Id,Sales
619,5313.79052734
1475,5189.43017578
2331,5266.06005859
3187,7032.48779297
4899,3758.22363281
5755,4300.77636719
6611,4226.21826172
7467,4171.92529297
8323,4296.10107422
9179,4761.35302734
10891,4199.83398438
11747,5964.05664062
12603,6220.15673828
13459,6272.96923828
14315,6406.44873047
15171,8181.25878906
16883,4409.09521484
17739,5640.73925781
18595,4688.63134766
19451,4344.00634766
20307,4446.36914062
21163,5420.22460938
22875,3722.05297852
23731,5641.92480469
24587,5543.19677734
25443,5505.63818359
26299,5697.44775391
27155,8044.3046875
28867,3966.08642578
29723,5146.51220703
30579,4864.94335938
31435,4749.61181641
32291,4878.84912109
33147,5712.62060547
34859,4271.84521484
35715,6195.64746094
36571,6196.8125
37427,6117.01806641
38283,6343.23925781
39139,8800.66601562
40851,4772.35351562
