Id,Sales
622,5217.65917969
1478,5228.43261719
2334,5343.65039062
3190,5930.64306641
4902,5416.32519531
5758,4445.93359375
6614,4030.64135742
7470,4050.53710938
8326,4130.04443359
9182,4572.45800781
10894,5489.48925781
11750,5715.74316406
12606,5470.17871094
13462,5483.79443359
14318,5531.83984375
15174,5367.78955078
16886,5357.0078125
17742,4479.74414062
18598,4174.12597656
19454,4049.47949219
20310,4107.08935547
21166,4542.35791016
22878,5343.84326172
23734,5579.44824219
24590,5377.32568359
25446,5380.14160156
26302,5454.60986328
27158,5898.08789062
29726,4430.01171875
30582,4042.06103516
31438,4044.64257812
32294,4116.29931641
33150,4539.7421875
34862,5279.85986328
35718,5717.07763672
36574,5485.15576172
37430,5502.21972656
38286,5623.84130859
39142,6206.09423828
40854,6022.45605469
