Id,Sales
63,7016.29052734
919,7302.76611328
1775,7412.50292969
2631,8869.04882812
4343,8511.17089844
5199,6846.01757812
6055,6100.87646484
6911,6334.18505859
7767,6400.09130859
8623,7126.45605469
10335,8425.73730469
11191,7833.66259766
12047,7372.46386719
12903,7388.95263672
13759,7354.85742188
14615,8722.88964844
16327,8718.25683594
17183,7073.29931641
18039,6218.4765625
18895,6398.80810547
19751,6266.90380859
20607,7100.63867188
22319,8456.01367188
23175,7834.40478516
24031,7094.58740234
24887,7293.40039062
25743,7319.15283203
26599,8732.99316406
29167,6901.25927734
30023,6154.20605469
30879,6314.60888672
31735,6372.19628906
32591,7104.25195312
34303,8506.38085938
35159,7838.51513672
36015,7237.76318359
36871,7416.48193359
37727,7432.02587891
38583,8838.14550781
40295,8696.70214844
