Id,Sales
65,3915.16992188
921,3946.43481445
1777,4331.02490234
2633,5268.08154297
4345,2773.72875977
5201,3247.20483398
6057,3058.15112305
6913,3141.30737305
7769,3168.88061523
8625,3651.77050781
10337,2793.35522461
11193,4342.34521484
12049,4125.51611328
12905,4609.00976562
13761,4813.55224609
14617,5267.63623047
16329,2849.09350586
17185,3383.30981445
18041,2972.31933594
18897,3057.0715332
19753,2973.44848633
20609,3419.13012695
22321,2729.13769531
23177,4070.79345703
24033,3845.55932617
24889,3960.83178711
25745,4338.64257812
26601,5271.42431641
28313,2731.33447266
29169,3211.12524414
30025,2864.15209961
30881,2952.58398438
31737,2966.51025391
32593,3469.93823242
34305,2753.54785156
35161,3894.76660156
36017,3844.3203125
36873,4063.52392578
37729,4435.60644531
38585,4914.07128906
40297,3060.484375
