Id,Sales
646,6932.6875
1502,7278.27734375
2358,7826.76855469
3214,8975.81347656
4926,3404.46557617
5782,5863.28076172
6638,5938.69238281
7494,6066.49023438
8350,6193.19238281
9206,6669.59619141
10918,3407.13330078
11774,6962.28125
12630,7234.30761719
13486,7817.24804688
14342,8186.22851562
15198,9630.4609375
16910,3870.34741211
17766,6645.18603516
18622,6011.74951172
19478,5869.66455078
20334,6080.41748047
21190,6597.41601562
22902,3233.22119141
23758,6628.09179688
24614,6912.85839844
25470,7181.08447266
26326,7784.06738281
27182,8940.9296875
28894,3324.34326172
29750,5860.46826172
30606,5931.74853516
31462,6048.26123047
32318,6190.7421875
33174,6672.27392578
34886,3377.91430664
35742,6920.69189453
36598,7252.20361328
37454,7584.51855469
38310,8086.0625
39166,9401.91113281
40878,3832.77636719
