Id,Sales
659,7587.91308594
1515,7635.59716797
2371,8126.17578125
3227,8907.21777344
4939,6297.76855469
5795,6022.70800781
6651,6044.95166016
7507,6043.19824219
8363,6169.32763672
9219,6561.76123047
10931,6421.15673828
11787,7690.08300781
12643,8016.49609375
13499,8739.12792969
14355,9055.44433594
15211,9803.00390625
16923,6603.66308594
17779,6321.03955078
18635,6020.17041016
19491,5799.41748047
20347,5797.06494141
21203,6261.87109375
22915,6167.18310547
23771,7384.93701172
24627,7456.12207031
25483,7514.60205078
26339,8104.60449219
27195,9152.61523438
28907,6301.38378906
29763,6034.37402344
30619,5916.95019531
31475,5916.63720703
32331,5978.14648438
33187,6458.14160156
34899,6406.47705078
35755,7644.59570312
36611,7690.79101562
37467,7752.31591797
38323,8319.3671875
39179,9535.4765625
40891,6618.38232422
