Id,Sales
667,4608.47998047
1523,4832.75195312
2379,5006.00146484
3235,5653.40917969
4947,2693.97802734
5803,3655.2590332
6659,3630.82641602
7515,3779.2109375
8371,3898.16821289
9227,4089.22558594
10939,2651.80737305
11795,4574.25927734
12651,4571.68505859
13507,4937.34082031
14363,5146.38671875
15219,5671.95751953
16931,2975.38891602
17787,4036.72509766
18643,3684.2109375
19499,3693.98925781
20355,3785.07397461
21211,3929.76831055
22923,2646.26611328
23779,4440.02734375
24635,4442.79443359
25491,4638.14306641
26347,4802.32714844
27203,5429.92333984
28915,2690.61035156
29771,3614.53076172
30627,3587.19848633
31483,3732.19458008
32339,3819.0090332
33195,4038.25097656
34907,2690.33251953
35763,4568.77197266
36619,4552.76025391
37475,4796.88330078
38331,4925.07226562
39187,5615.67871094
40899,2870.02172852
