Id,Sales
669,7336.72363281
1525,6969.03613281
2381,7150.10498047
3237,9057.859375
4949,6287.84375
5805,6172.97753906
6661,5287.67578125
7517,4996.68212891
8373,5070.41894531
9229,5634.75878906
10941,6775.33691406
11797,8391.50683594
12653,7861.8671875
13509,8396.21972656
14365,8254.28320312
15221,9501.2734375
16933,6417.96240234
17789,6203.51806641
18645,5265.60205078
19501,4917.20849609
20357,4998.86523438
21213,5458.26513672
22925,6209.55517578
23781,7713.60498047
24637,7224.06835938
25493,6879.23535156
26349,7171.22558594
27205,9266.67871094
28917,6387.44775391
29773,6349.91601562
30629,5487.86083984
31485,5178.13574219
32341,5274.39453125
33197,5668.7421875
34909,6562.88818359
35765,8250.6953125
36621,7742.85498047
37477,7867.19238281
38333,8060.11132812
39189,10041.4033203
40901,7392.91992188
