Id,Sales
676,6056.67138672
1532,7249.14453125
2388,7070.74414062
3244,7557.17626953
4956,5050.90625
5812,5561.26318359
6668,5611.22509766
7524,6039.82080078
8380,6066.76513672
9236,6252.33691406
10948,5273.41650391
11804,6592.00634766
12660,6930.14453125
13516,8238.81347656
14372,8046.21484375
15228,8791.59082031
16940,5613.92333984
17796,6560.20019531
18652,6009.77392578
19508,6518.37597656
20364,6292.91064453
21220,6589.10791016
22932,5193.08203125
23788,6428.74902344
24644,6525.35449219
25500,7825.84082031
26356,7539.51318359
27212,8265.62695312
28924,5314.14990234
29780,5956.5546875
30636,6009.84326172
31492,6718.05810547
32348,6547.63085938
33204,6832.47314453
34916,5459.66259766
35772,6692.43847656
36628,6850.26806641
37484,8290.54980469
38340,8173.25195312
39196,9220.08789062
40908,5989.54003906
