Id,Sales
5813,3607.55834961
6669,3551.87280273
7525,3329.8425293
8381,3425.61108398
9237,3581.62963867
10949,3477.76220703
11805,5073.78662109
12661,4881.78466797
13517,4826.17041016
14373,4694.62353516
15229,5323.68652344
16941,3544.48022461
17797,3650.69921875
18653,3512.71850586
19509,3298.85546875
20365,3344.61767578
21221,3443.95800781
22933,3378.90087891
23789,4714.79980469
24645,4629.98583984
25501,4532.07373047
26357,4535.37255859
27213,5673.53369141
29781,3743.94140625
30637,3641.04125977
31493,3396.30859375
32349,3458.74169922
33205,3587.52661133
34917,3634.04833984
35773,4999.50341797
36629,4786.80029297
37485,4734.27734375
38341,4678.20263672
39197,5972.24462891
40909,3716.51879883
