Id,Sales
691,10084.5283203
1547,10177.9560547
2403,10778.6972656
3259,12871.71875
4971,9120.98046875
5827,8748.47167969
6683,8270.17578125
7539,8348.66015625
8395,8603.40234375
9251,9348.3046875
10963,9009.16210938
11819,10332.4189453
12675,10028.8330078
13531,10312.6972656
14387,10283.8544922
15243,12251.6835938
16955,9096.95019531
17811,8545.8984375
18667,8044.56445312
19523,8070.10205078
20379,8247.125
21235,8982.45117188
22947,8905.87109375
23803,10336.2285156
24659,9992.94335938
25515,10093.9306641
26371,10415.5498047
27227,12428.1757812
28939,9030.71191406
29795,8663.53027344
30651,8164.85693359
31507,8225.51171875
32363,8499.36035156
33219,9285.64355469
34931,9036.45507812
35787,10382.6787109
36643,10073.9033203
37499,10160.046875
38355,10513.0830078
39211,12627.3427734
40923,9562.921875
