Id,Sales
729,5511.89306641
1585,5861.05908203
2441,6775.91796875
3297,7705.33056641
5009,4240.10400391
5865,4316.59326172
6721,4353.42626953
7577,4481.04248047
8433,4670.38964844
9289,4911.86523438
11001,4339.88671875
11857,5817.08789062
12713,5821.15673828
13569,6054.13671875
14425,6811.96679688
15281,8383.20703125
16993,4339.97167969
17849,4492.33154297
18705,4471.42480469
19561,4495.40527344
20417,4623.73779297
21273,4815.17675781
22985,4255.35351562
23841,5556.26513672
24697,5578.54785156
25553,5887.62255859
26409,6712.26708984
27265,7669.76318359
29833,4381.17041016
30689,4397.00830078
31545,4511.46484375
32401,4661.21191406
33257,4950.09472656
34969,4310.29199219
35825,5866.07763672
36681,5876.22949219
37537,6094.20849609
38393,6828.95800781
39249,7816.19287109
40961,4616.25244141
