Id,Sales
744,6472.3671875
1600,6547.40136719
2456,6971.28173828
3312,8274.59863281
5024,5693.29882812
5880,5941.85888672
6736,5251.91845703
7592,5260.73925781
8448,5510.27197266
9304,5653.94189453
11016,5809.54150391
11872,7930.33740234
12728,7397.05419922
13584,7983.97705078
14440,8130.66650391
15296,9624.59863281
17008,6534.00537109
17864,6385.11035156
18720,5096.91748047
19576,4902.40820312
20432,4942.08398438
21288,5138.97753906
23000,5402.80664062
23856,7057.53173828
24712,6344.69873047
25568,6446.96435547
26424,6837.61865234
27280,8109.81640625
28992,5671.39550781
29848,5973.90087891
30704,5271.82568359
31560,5276.75585938
32416,5481.62744141
33272,5571.32958984
34984,5665.72705078
35840,7198.05078125
36696,6576.02148438
37552,6780.11376953
38408,7653.45556641
39264,8963.640625
40976,6509.07177734
