Id,Sales
754,8231.40332031
1610,7615.26123047
2466,7741.38720703
3322,9485.05957031
5034,5332.86328125
5890,6581.90820312
6746,6622.36767578
7602,6094.89453125
8458,6168.70019531
9314,6410.60107422
11026,5618.74414062
11882,8529.14160156
12738,8551.13671875
13594,8253.09667969
14450,8260.62011719
15306,11592.4296875
17018,6193.12890625
17874,6936.36376953
18730,6655.54150391
19586,5785.20361328
20442,5751.03515625
21298,5928.93994141
23010,5179.78173828
23866,8031.6484375
24722,8308.76757812
25578,7817.79492188
26434,8055.37841797
27290,9657.17773438
29002,5328.24365234
29858,6584.01318359
30714,6571.80615234
31570,6042.7109375
32426,6281.34423828
33282,6690.00878906
34994,5427.80761719
35850,8429.21484375
36706,8474.67382812
37562,7960.05419922
38418,8353.16796875
39274,9746.1640625
40986,5860.40771484
