Id,Sales
755,7044.41796875
1611,7229.94873047
2467,7909.68847656
3323,10129.7392578
5035,4266.29589844
5891,5764.60302734
6747,5513.17529297
7603,5606.74511719
8459,5650.66943359
9315,5866.97070312
11027,4479.56933594
11883,7974.59521484
12739,7896.578125
13595,8827.0859375
14451,9477.91015625
15307,10615.1826172
17019,4468.09130859
17875,6130.81005859
18731,5286.47705078
19587,5234.14306641
20443,5247.99365234
21299,5487.86376953
23011,4187.14648438
23867,7178.93896484
24723,7114.13232422
25579,7241.53320312
26435,7917.59912109
27291,10190.1347656
29003,4348.74511719
29859,5816.70996094
30715,5557.36230469
31571,5615.04199219
32427,5767.88183594
33283,6036.08203125
34995,4425.40136719
35851,7232.76123047
36707,7454.29345703
37563,7887.40136719
38419,8938.10839844
39275,11062.1845703
40987,5246.85595703
