Id,Sales
769,5762.12618908
1625,7026.18618909
2481,7207.83066168
3337,7289.85886765
5049,7061.67300863
5905,6506.76461584
6761,6665.59156354
7617,6500.24137637
8473,6400.6995145
9329,6327.20274235
11041,6278.29597426
11897,6153.00397248
12753,6981.75198091
13609,7081.12525872
14465,7093.62525754
15321,7145.20903975
17033,7172.57909018
17889,6505.29627303
18745,6683.9139513
19601,6533.47496635
20457,6439.79499802
21313,6372.29998698
23025,6294.5993573
23881,6148.56486692
24737,6981.02092361
25593,7081.49654846
26449,7094.48737398
27305,7149.63973724
29873,7174.30590331
30729,6615.95244803
31585,6629.1400402
32441,6513.74625088
33297,6440.32101405
35009,6371.55776341
35865,6152.16565667
36721,7018.08663651
37577,7109.20559096
38433,7124.11252242
39289,7149.63973724
41001,7174.30590331
