Id,Sales
772,5048.15498589
1628,6404.60279771
2484,7097.73231959
3340,7278.93277037
5052,7410.6258582
5908,6896.90030964
6764,6416.5518011
7620,6043.41913968
8476,5951.74485858
9332,5896.71817427
11044,5810.41472093
11900,5724.77401141
12756,6974.24102969
13612,7255.0410403
14468,7764.61359307
15324,7910.81423476
17036,7846.38850624
17892,6634.0460865
18748,6109.70391676
19604,5615.5638817
20460,5296.23308976
21316,5434.86839353
23028,5821.38204437
23884,5737.63643536
24740,6986.66973188
25596,7268.91244797
26452,7795.74615431
27308,7921.63907652
29020,7813.42675011
29876,6581.84867569
30732,6079.54985788
31588,5604.74861195
32444,5295.56140161
33300,5511.86852274
35012,5605.43630575
35868,5652.28622056
36724,6574.77755149
37580,6563.26701664
38436,6753.83096966
39292,6766.88797212
41004,6773.16909189
