Id,Sales
77,5670.176212143366
933,8123.335664186745
1789,9170.814501541245
2645,9567.399541737293
4357,9853.68042270935
5213,9232.32140850677
6069,8636.11868417053
6925,8157.258707536306
7781,6787.668082391691
8637,6312.44184190468
10349,6114.152212131356
11205,6195.268078531293
12061,7491.996209292498
12917,7698.513048660488
13773,8133.718507843232
14629,8544.683062925678
16341,9089.147081455285
17197,8344.767276675822
18053,7015.999647439519
18909,6796.967751949935
19765,6734.308103760604
20621,6671.585865091545
22333,6559.808985766087
23189,6423.376091913464
24045,7099.551260231341
24901,7609.5476583711925
25757,7763.71446334172
26613,7851.968808838008
28325,7931.435794829283
29181,7182.360657573253
30037,6455.709456677546
30893,6628.061511917975
31749,6641.462901059048
32605,6621.98405606936
34317,6518.287179111561
35173,6395.214960688277
36029,7140.456630393629
36885,7642.574551563931
37741,7763.71446334172
38597,7851.968808838008
40309,7931.435794829283
