Id,Sales
776,6772.18900447
1632,6925.28065696
2488,7396.73463771
3344,8259.5600284
5056,9365.17100278
5912,9057.76752022
6768,8069.87492231
7624,7717.02809022
8480,7565.46071763
9336,7723.00440785
11048,8166.83705486
11904,7801.64738099
12760,8002.9239964
13616,8416.33884126
14472,8805.06134563
15328,9086.6633533
17040,9076.72275613
17896,9171.0559716
18752,8286.14466268
19608,8379.70990786
20464,8278.45137936
21320,8000.42519556
23032,7778.26037135
23888,8031.62593493
24744,6803.34054141
25600,6484.04336699
26456,6277.48303636
27312,6228.40489291
29024,6536.52373044
29880,7214.78348515
30736,7557.1348418
31592,7639.26180199
32448,7599.77372396
33304,7510.35484997
35016,7469.08979634
35872,7558.399458
36728,6618.39543525
37584,6346.0843056
38440,6277.48303636
39296,6228.40489291
41008,6536.52401485
