Id,Sales
800,5229.67594703
1656,8545.28920727
2512,9531.17523662
3368,10213.0216302
4224,9779.77540422
5080,10561.8055316
5936,10728.6363272
6792,10191.5564126
7648,9794.72893726
8504,9730.07173969
9360,9620.04417026
10216,9557.3288073
11072,9463.96902575
11928,9489.56524291
12784,10258.4442212
13640,11614.0518663
14496,11220.0823801
15352,10082.3163201
16208,8881.69754133
17064,8684.84110176
17920,8521.05278306
18776,7464.77371512
19632,7128.93855744
20488,7074.40895956
21344,7175.8746064
22200,7594.11089069
23056,8144.57028219
23912,8493.00682885
24768,11058.0515579
25624,10589.9476199
26480,9096.42961743
27336,8174.92375477
28192,7525.57802883
29048,6572.68126792
29904,6873.78982266
30760,6873.43042315
31616,6810.25099793
32472,6787.1122235
33328,6902.09829411
34184,7383.45535059
35040,8179.17071377
35896,8352.34576346
36752,11058.0515579
37608,10589.9476199
38464,9096.42961743
39320,8174.92375477
40176,7525.57802883
41032,6572.68126792
