Id,Sales
807,6431.44012069
1663,8982.048808
2519,10003.1367219
3375,10722.1169655
5087,10882.7537448
5943,10733.0924475
6799,11570.9392425
7655,10093.0279271
8511,9569.76486156
9367,9476.40850221
11079,9514.91120004
11935,9556.83078743
12791,11000.0515043
13647,10736.4171048
14503,10663.2972029
15359,10558.3419883
17071,10519.3791652
17927,10230.991231
18783,10015.3268764
19639,10275.8727237
20495,10467.6950467
21351,10602.0566896
23063,10659.025362
23919,10507.177194
24775,10662.1218175
25631,10586.4425863
26487,10584.1829733
27343,10533.2864352
29055,10529.0839603
29911,10440.1217531
30767,10197.6007079
31623,10441.1901737
32479,10563.7476258
33335,10612.0154686
35047,10580.3900955
35903,10511.3256494
36759,10662.5392412
37615,10586.4425863
38471,10584.1826664
39327,10533.2864352
41039,10529.0842672
