Id,Sales
812,6512.2214515
1668,7631.92340308
2524,7975.00542033
3380,8293.99784183
5092,8796.87565098
5948,7871.06981543
6804,7604.84888911
7660,7229.46455341
8516,7039.04298362
9372,7056.08599265
11084,7102.80809437
11940,7062.21783713
12796,7583.10726375
13652,7917.41679229
14508,8060.16771865
15364,7900.56522253
17076,7817.3375201
17932,7347.56434339
18788,7370.48190603
19644,7389.19981752
20500,6997.74484885
21356,6789.83459767
23068,6701.20826425
23924,7387.65978527
24780,7466.70935028
25636,7682.39096545
26492,7599.63023068
27348,7503.51985597
29060,7375.68189012
29916,7062.63653545
30772,6783.61910089
31628,6881.39138249
32484,6914.44550686
33340,6930.72658105
35052,6949.74459244
35908,7572.76430143
36764,7561.13663202
37620,7732.92983977
38476,7600.16064741
39332,7471.41320854
41044,7370.93085459
