Id,Sales
818,3192.16381612
1674,5307.95656207
2530,5565.10167918
3386,5920.51856105
5098,6132.0756039
5954,6257.97924287
6810,5987.63597659
7666,5619.25207736
8522,5143.87908749
9378,4831.43731508
11090,4705.32236026
11946,5572.35739012
12802,6054.79361167
13658,6253.21923323
14514,6410.15604045
15370,6374.47411924
17082,6275.19882451
17938,6146.16981326
18794,5817.10091404
19650,5295.4989488
20506,4903.07557758
21362,4713.05584157
23074,4423.65293299
23930,5139.0505871
24786,5809.97813654
25642,6133.25790192
26498,6338.87329003
27354,6336.0247536
29922,6238.42131236
30778,5636.92935224
31634,5635.88312166
32490,5287.45830376
33346,5043.62677115
35058,4844.7668307
35914,5482.59989475
36770,5921.42428438
37626,6177.93894702
38482,6324.46920733
39338,6336.0247536
41050,6238.42131236
