Id,Sales
826,2576.49368675
1682,2943.38274411
2538,3587.5513326
3394,3845.24945598
5106,4085.53040066
5962,4866.55002972
6818,5303.49639894
7674,5134.44490624
8530,4823.36776247
9386,4333.33421555
11098,4525.79533744
11954,4531.13921485
12810,4589.55580998
13666,4645.83408861
14522,4630.40023718
15378,4528.77506735
17090,4524.78666205
17946,4467.08437824
18802,4471.25651047
19658,4531.54427683
20514,4543.57589933
21370,4545.39749345
23082,4538.48652987
23938,4544.38735991
24794,4598.47391729
25650,4657.60075307
26506,4647.9971329
27362,4543.6838632
29074,4530.2241041
29930,4470.10104796
30786,4475.22328655
31642,4534.54885605
32498,4546.2198294
33354,4191.57747169
35066,4064.33679523
35922,4303.92247566
36778,4370.15129269
37634,4838.27613303
38490,5234.04033101
39346,5158.24301093
41058,4817.87588281
