Id,Sales
832,4994.67939705
1688,5385.80284377
2544,5468.85670411
3400,6267.14690904
5112,6890.40301408
5968,7322.97482615
6824,7376.86572319
7680,7412.51641031
8536,7415.28755861
9392,7385.70855141
11104,7314.29935754
11960,7382.15050385
12816,7255.814535
13672,7295.25936889
14528,7330.23855687
15384,7196.69066959
17096,7109.72711517
17952,6573.52018548
18808,6038.17592317
19664,5718.99399751
20520,5570.96012071
21376,5459.3141155
23088,5455.3111004
23944,5456.4443472
24800,6150.62959119
25656,6475.42865242
26512,6651.45349689
27368,6673.32575617
29080,6734.62857151
29936,6173.11344163
30792,5845.81202679
31648,5640.97494558
32504,5523.60979014
33360,5460.54649747
35072,5456.33535002
35928,5457.18009653
36784,6150.98377681
37640,6475.42857882
38496,6651.45357049
39352,6673.32579296
41064,6734.62868191
