Id,Sales
838,10344.4058049
1694,11060.474441
2550,11629.4397425
3406,12556.6040616
5118,13013.8876154
5974,11466.8104033
6830,11738.2362948
7686,11830.965757
8542,11834.5850555
9398,11806.8277635
11110,11738.5893902
11966,11381.4262287
12822,13262.3509717
13678,13205.3976763
14534,13295.5563985
15390,13415.8702463
17102,13527.601684
17958,11891.5506194
18814,12242.3634406
19670,12133.4653937
20526,12070.6790346
21382,11998.614186
23094,11845.6695529
23950,11456.5036907
24806,13294.690886
25662,13201.4891453
26518,13292.8589127
27374,13413.3754417
29942,13531.4344756
30798,12198.5996584
31654,12030.9247318
32510,12023.2204946
33366,12010.088178
35078,11937.2725044
35934,11589.9311444
36790,13447.1154134
37646,13324.0277803
38502,13352.2204055
39358,13413.3754417
41070,13531.4344756
