Id,Sales
107,3985.866002557528
963,3995.3475510050594
1819,3799.3862440432963
2675,4142.951044753553
4387,4215.457626753676
5243,3953.0031528348964
6099,3882.952454182776
6955,3727.048497281995
7811,3703.657425008482
8667,3659.675179091262
10379,3604.6093216749437
11235,3650.9771505100202
12091,4083.2787960656756
12947,4413.725698303561
13803,4579.997370553038
14659,4613.380359390081
16371,4629.8858320815
17227,4105.733692484699
18083,3885.0246037749002
18939,3693.315521116227
19795,3625.284754317956
20651,3593.4699393472374
22363,3626.0663072949546
23219,3671.0205137621524
24075,4094.3363938677003
24931,4423.246219710674
25787,4589.513545769299
26643,4622.062835270114
28355,4628.953078455756
29211,4112.465402807282
30067,3890.3477041248952
30923,3695.4468677312075
31779,3625.62908683997
32635,3671.2757652336954
34347,3865.1886521709093
35203,3995.153590341747
36059,4172.363589971462
36915,4506.103334536715
37771,4772.756641231538
38627,4874.512326294288
40339,4913.306045157844
