Id,Sales
113,4368.764932774228
969,7179.9612798605995
1825,7868.883905140832
2681,7978.8345702551105
4393,7455.291228854801
5249,8162.349761320476
6105,7354.123953829144
6961,6827.187342013762
7817,6621.874550863602
8673,6466.630578953263
10385,6296.310270293757
11241,7264.259494814334
12097,7145.3581437375105
12953,7141.844930385109
13809,7192.922072890633
14665,7143.947186745387
16377,7213.482700125109
17233,7623.67791468153
18089,6577.593045232541
18945,6200.048705993272
19801,6002.627803411682
20657,5770.860794841659
22369,6434.6347080038995
23225,7309.296150477584
24081,7164.900192362201
24937,7133.894809297524
25793,7175.7043311198595
26649,7122.006457727944
29217,7191.131935698124
30073,6912.79833018713
30929,6282.797739752014
31785,6031.084421352362
32641,5928.071362745428
34353,5857.334948573491
35209,7167.340429192719
36065,7209.510047357754
36921,7188.286479010937
37777,7242.732724990256
38633,7122.006457727944
40345,7191.131935698124
