Id,Sales
123,6331.387653450355
979,6227.115404727713
1835,6665.822728276206
2691,7114.069833918744
4403,7162.101468454419
5259,6628.321625901268
6115,6846.636981772411
6971,6732.6696804201365
7827,6618.274981151842
8683,6304.401707335515
10395,6185.388525338033
11251,6394.082466113173
12107,6931.7669951784
12963,6990.624879535339
13819,6916.124356544153
14675,6786.741646308202
16387,6575.671706698855
17243,6264.351395302647
18099,6267.053884447337
18955,6193.90988074424
19811,6180.251744453126
20667,6238.295884026642
22379,6211.188515206295
23235,6409.007785103587
24091,6940.827351478404
24947,6991.436018233908
25803,6915.223047309643
26659,6819.578232071096
28371,6606.470375803451
29227,6285.71061658007
30083,6294.817236098398
30939,6218.8458179670615
31795,6195.12235651029
32651,5725.70067591439
34363,5661.430036710869
35219,6093.410659126862
36075,6573.782899791551
36931,6678.435761994918
37787,6751.238764707067
38643,6736.671542624241
40355,6816.339348117463
