Id,Sales
132,5715.311128263807
988,5064.5201697239445
1844,5260.623845377726
2700,5630.30654904961
4412,7070.33937127216
5268,5305.203775876551
6124,5702.1061862970255
6980,5999.290851112912
7836,6233.562053139565
8692,6350.487749459261
10404,6405.283459903719
11260,5106.7742903525805
12116,7454.707425238033
12972,7761.207796791411
13828,7945.4605216064
14684,8065.408625965212
16396,8112.845204875834
17252,5583.724173251586
18108,6526.81953208301
18964,6571.466581901128
19820,6518.787247095746
20676,6553.773819560796
22388,6487.351804130088
23244,5307.983895718686
24100,7478.875712092204
24956,7762.165344837218
25812,7946.066712561374
26668,8069.356825830144
29236,8126.79826065731
30092,6937.146757088506
30948,6664.897674090413
31804,6586.0353162983665
32660,6539.44753018138
34372,6498.920791099512
35228,5346.9595198773495
36084,7556.134125940751
36940,7813.2524776594555
37796,7970.661865740584
38652,8069.356825830144
40364,8126.79826065731
