Id,Sales
140,3465.2061600449824
996,6062.151762933878
1852,6268.4232395591935
2708,6895.612961755958
4420,6823.626602997218
5276,6793.21635451387
6132,5629.917778564963
6988,5169.971282033775
7844,4807.6076703621075
8700,4602.766707781799
10412,4659.378117365873
11268,5863.785489476544
12124,5644.919267194158
12980,6260.7355596438465
13836,6560.527997932883
14692,6710.442037060112
16404,6771.582895503688
17260,6833.606191526834
18116,5632.034175282483
18972,5283.647789001956
19828,4913.261084772498
20684,4759.750812605177
22396,4743.830474895427
23252,5968.527963045913
24108,5758.618621570339
24964,6273.58177611838
25820,6559.682992272301
26676,6720.717895246407
29244,6776.4267451056285
30100,5618.201438591935
30956,5369.9519065504865
31812,5026.031616104337
32668,4825.58555653642
34380,4797.6884482683345
35236,6007.415545650514
36092,5820.43016841346
36948,6420.450589261685
37804,6699.830287132676
38660,6720.717895246407
40372,6776.4267451056285
