Id,Sales
142,3149.684488536821
998,2927.9660286830353
1854,3034.4925605214785
2710,3066.467902098914
4422,3119.6353524863566
5278,2789.3384351746863
6134,2864.5043730500806
6990,2899.5261318048474
7846,2885.13423214177
8702,2863.2666320784683
10414,2863.0049671724073
11270,2757.9276521235633
12126,3177.2496220431285
12982,3314.6326031275007
13838,3274.8212221878175
14694,3259.863169821479
16406,3248.8731338236726
17262,2739.078983428133
18118,2821.4126157229407
18974,2855.6302496361395
19830,2854.9514600857106
20686,2844.148657421947
22398,2847.657385914399
23254,2743.496722611053
24110,3172.820063962141
24966,3316.1674107277586
25822,3276.624950947834
26678,3261.7983357223343
29246,3249.7630143907563
30102,2818.231298192779
30958,2846.763327504277
31814,2851.5577322200397
32670,2849.889013756092
34382,2836.880969627717
35238,2729.2746852504397
36094,3164.7983304711797
36950,3298.4132269650336
37806,3260.712151504086
38662,3261.7983357223343
40374,3249.7630143907563
