Id,Sales
145,7095.579181260709
1001,8083.719974136144
1857,9004.106552455114
2713,9632.896537922226
4425,9742.09833975409
5281,7839.224926178546
6137,6872.824395620609
6993,6491.035879178025
7849,6362.723301291748
8705,6403.873150189369
10417,6462.215615564233
11273,6662.441385734221
12129,7569.226550531982
12985,8743.27480979184
13841,9343.365017890881
14697,9676.294652051487
16409,9832.417240432056
17265,7995.209236453154
18121,6607.955639301335
18977,5845.559707757118
19833,5638.986821843224
20689,5720.97913192932
22401,6086.3611191659365
23257,6954.020534449493
24113,8094.621226561824
24969,9086.622650270332
25825,9388.363008547045
26681,9334.628113388611
28393,9140.43647869797
29249,7459.365001022721
30105,6339.275136299188
30961,5703.038909598383
31817,5640.704113056915
32673,5723.184627151655
34385,6090.821254553548
35241,6971.954729570447
36097,8094.98123645044
36953,9086.622650270332
37809,9388.363008547045
38665,9334.628113388611
40377,9140.43647869797
