Id,Sales
149,3797.151067903318
1005,5255.393536106135
1861,5156.98576665785
2717,5059.022187154997
4429,5044.814219525096
5285,4289.717570076683
6141,3758.251296264916
6997,3698.049224899357
7853,3979.614707130915
8709,4062.205286367862
10421,3988.5183208242174
11277,4190.886844461889
12133,4386.557510667885
12989,4810.263979977327
13845,4939.362364438348
14701,4911.2682468489975
16413,4920.352111164106
17269,4629.105662061175
18125,3891.780241009934
18981,3672.63015437493
19837,3648.853026394105
20693,3684.025470848196
22405,3809.0192801923176
23261,4157.685140139547
24117,4380.987587481826
24973,4809.424855806024
25829,4941.641039107547
26685,4914.186977414125
28397,4918.719424042503
29253,4630.74218430239
30109,3893.7312430594066
30965,3675.2701484465924
31821,3652.688964165853
32677,3687.4958961533707
34389,3812.764606871345
35245,4160.511163079898
36101,4381.571957440975
36957,4809.424855806024
37813,4941.641039107547
38669,4914.186977414125
40381,4918.719424042503
