Id,Sales
157,4665.020428500949
1013,5446.287069057651
1869,5818.544848148187
2725,5875.983906389708
4437,6452.213366091897
5293,6031.349415068591
6149,5911.266007736488
7005,5714.463473239988
7861,5625.325409611974
8717,5569.88142780873
10429,5553.800005292601
11285,5584.052147238612
12141,5892.581566634407
12997,5959.151293998291
13853,6080.534018300024
14709,6459.029159438558
16421,6872.2474683094315
17277,5941.429827038769
18133,5917.2790064803685
18989,5749.123638885823
19845,5622.761790652677
20701,5574.473552250231
22413,5552.073185270534
23269,5585.662066671491
24125,5906.112835099165
24981,5953.4298898078
25837,6071.930906135987
26693,6452.211251510514
29261,6867.194862674951
30117,5981.7472753043285
30973,5750.642281480392
31829,5630.559293954887
32685,5554.225626989543
34397,5549.137337794221
35253,5597.072363363707
36109,5977.819409288223
36965,6156.223468717937
37821,6385.068565882133
38677,6452.211251510514
40389,6867.194862674951
