Id,Sales
192,4044.7886481790547
1048,5539.451741708443
1904,5868.537993623593
2760,6374.827349389372
4472,6644.588629565523
5328,6476.827367876445
6184,6242.91781871342
7040,6688.090917976024
7896,6784.379395721303
8752,6728.27384062616
10464,5993.46805111638
11320,6791.1754043025285
12176,7181.515511172309
13032,7020.790196668813
13888,6932.368608185006
14744,6786.255941807005
16456,6580.6316700160205
17312,5421.118193069928
18168,5447.2332064095535
19024,5325.851124323342
19880,5369.697522721354
20736,5434.724556450735
22448,5993.456209793292
23304,6999.587244997781
24160,7849.017117900598
25016,7697.906350496825
25872,7314.916213592198
26728,6824.086540082256
28440,6409.019169804564
29296,5462.829557269359
30152,5778.751920371702
31008,5397.768413318425
31864,5365.479592201089
32720,5556.30175469718
34432,6051.875453151452
35288,6851.541862155329
36144,8036.696319987961
37000,7663.491973932321
37856,7314.916213592198
38712,6824.086540082256
40424,6409.019169804564
