Id,Sales
193,6031.636430347784
1049,8013.199388192641
1905,7956.189149690001
2761,7091.108233094299
4473,7367.058816707214
5329,4578.095979877571
6185,4946.474876668609
7041,4415.540449357482
7897,4319.558460215965
8753,4766.168037455713
10465,5941.246675438011
11321,5976.802797126193
12177,9774.355362268761
13033,10183.764077823213
13889,10321.528345408706
14745,10288.876384055115
16457,10799.292206936016
17313,7669.17632981863
18169,7366.54963902119
19025,6886.1359103984205
19881,6609.360222451043
20737,6476.848096831536
22449,6392.91107905279
23305,6985.712442739959
24161,10335.142677778791
25017,10536.264168709316
25873,10746.683879734966
26729,10835.984334341112
28441,11045.255033079056
29297,7941.522393600519
30153,7777.050758720024
31009,7296.8833420315805
31865,6822.495646336775
32721,6647.575596657925
34433,6461.106303325714
35289,6959.388621481309
36145,10368.162074757187
37001,10536.264168709316
37857,10746.683879734966
38713,10835.984334341112
40425,11045.255033079056
