Id,Sales
204,3120.3451077292248
1060,6449.772647647331
1916,7199.521154919907
2772,6398.217034335151
4484,6051.437411074726
5340,6133.587958481825
6196,5842.556948804492
7052,5697.458530215275
7908,5616.058664264597
8764,5577.761207120158
10476,6159.127467787509
11332,6408.461975587906
12188,6761.9374328698905
13044,6830.916424982222
13900,6791.538802475725
14756,6747.516674477441
16468,6667.593187377652
17324,6522.821933498448
18180,6521.03942082514
19036,6191.937444539686
19892,5689.269872137489
20748,5420.213873509138
22460,5377.2615008470975
23316,5327.315593779714
24172,6222.83724744123
25028,6465.6903413973405
25884,6496.546290417987
26740,6538.442770208536
28452,6561.82764136118
29308,6307.443823014557
30164,6334.785031066443
31020,5952.262808186801
31876,5658.02013424162
32732,5418.16091100063
34444,5375.175437091952
35300,5305.892867543286
36156,6185.26406454849
37012,6465.6903413973405
37868,6496.546290417987
38724,6538.442770208536
40436,6561.82764136118
