Id,Sales
206,3623.8719352835833
1062,4434.805274304133
1918,5439.39196943525
2774,6376.433850521213
4486,7275.703564392953
5342,5484.12571083401
6198,5214.470629787329
7054,5076.595085544948
7910,4957.190649331111
8766,4628.355150938828
10478,4455.487872992061
11334,4565.2293465346065
12190,5746.696182023965
13046,6298.994248696114
13902,6900.658716773452
14758,7337.504253022489
16470,7529.598078025041
17326,6177.884408554495
18182,6011.640162426893
19038,5904.65360868111
19894,5939.956730562164
20750,5826.827027289166
22462,6107.3328185330865
23318,6144.295411024303
24174,6592.4181811341705
25030,6679.983661950874
25886,6993.608065923521
26742,7208.784937163626
28454,7282.3338488412155
29310,6403.546768312288
30166,6481.327589068259
31022,6373.675779284427
31878,6262.629307378859
32734,6191.551124680479
34446,6194.863417657465
35302,6149.128942954486
36158,6594.436484203013
37014,6679.983661950874
37870,6993.608065923521
38726,7208.784937163626
40438,7282.3338488412155
