Id,Sales
2,5184.300435029647
858,8404.8636723499
1714,9296.653196269179
2570,9363.287506097513
4282,9371.528768092972
5138,8799.322078765737
5994,9148.575181146813
6850,9420.102540005073
7706,9456.926000575288
8562,9460.721700240654
10274,9450.253345566694
11130,9411.136159837275
11986,9374.482285463044
12842,9212.402826366466
13698,9181.494500955616
14554,9120.960460061457
16266,8984.487863298433
17122,8496.733139791013
17978,8845.162481797928
18834,9227.245146116744
19690,9389.360403840208
20546,9531.288632949603
22258,9452.490106487494
23114,9413.785258226888
23970,9376.953958541297
24826,9212.990760019713
25682,9181.201579344375
26538,9120.975354380673
28250,8979.549481914997
29106,8492.763019808515
29962,8844.554819704315
30818,9230.105900621526
31674,9395.837603572078
32530,9267.38559770666
34242,8907.184386790572
35098,8982.279976452603
35954,9272.201427586373
36810,9439.082606154987
37666,9604.810128244004
38522,9773.11907102655
40234,9792.976072883263
