Id,Sales
239,5660.48872858332
1095,6945.825192467648
1951,8724.78332523134
2807,8775.652356182984
3663,9534.309943407377
4519,9365.243100047614
5375,9286.431109174524
6231,9255.341301459986
7087,9220.924999933766
7943,9105.747000588548
8799,8943.001749903835
9655,8753.390151614924
10511,8360.930816126946
11367,7610.47590917404
12223,8096.781566497436
13079,9456.81538787542
13935,10927.553844868358
14791,11930.16117667147
15647,12435.496533600992
16503,11596.245005548382
17359,10489.106720065722
18215,8093.588988073767
19071,6988.375929373459
19927,6717.9173973614725
20783,6573.533111872353
21639,6246.5650009367755
22495,7213.011339786633
23351,7481.722418747015
24207,6714.844598552596
25063,7407.964996558029
25919,8856.12955986415
26775,10754.025339577352
27631,11483.135228969571
28487,10592.175042481867
29343,9279.15680283027
30199,7236.76374505659
31055,6370.765836243361
31911,5871.377239962607
32767,5952.287035750032
33623,5897.657233821391
34479,7089.133661361848
35335,7478.023807726422
36191,6714.844598552596
37047,7407.964996558029
37903,8856.12955986415
38759,10754.025339577352
39615,11483.135228969571
40471,10592.175042481867
