Id,Sales
250,4046.46326165766
1106,4082.460564587972
1962,4203.5810879073815
2818,4426.9069926960965
4530,4534.60814018534
5386,4526.600601589146
6242,4705.158047424279
7098,4417.649303817406
7954,4061.6004870958573
8810,3845.5651015154854
10522,3846.758639103976
11378,3919.714502351147
12234,4629.321625675344
13090,4453.958443666188
13946,4329.08294795739
14802,4690.133187907453
16514,4855.121131510987
17370,4151.272602842567
18226,4968.622384960597
19082,4908.65636507637
19938,4982.683534808339
20794,4985.92230405911
22506,4839.580872270014
23362,4089.433903237419
24218,4041.6856734371318
25074,3698.1987090460416
25930,3499.079271170998
26786,3795.074724710859
28498,4345.737916748566
29354,4057.99565979196
30210,4748.681606315501
31066,4729.7022099919
31922,4793.0671355120985
32778,4903.950878633456
34490,4749.243417238298
35346,4074.1936912746796
36202,4067.697543451939
37058,3698.1987090460416
37914,3499.079271170998
38770,3795.074724710859
40482,4345.737916748566
