Id,Sales
253,3186.5474462414286
1109,3474.068211349999
1965,3667.6571142372172
2821,3763.807270554209
4533,3841.8412343057453
5389,2917.369109287226
6245,3022.223517758821
7101,2768.0286729420177
7957,2827.6796530715264
8813,2862.1006020195414
10525,2870.6519411331137
11381,2887.874268850155
12237,3022.4175137678562
13093,2746.2373234178026
13949,2662.0773119893893
14805,2893.7715985835584
16517,3323.320838497804
17373,2610.187909869491
18229,2723.708962824072
19085,2817.3670833960778
19941,2845.3910046373203
20797,2852.323476223158
22509,2861.2345085127918
23365,2860.1597731050906
24221,2867.5013367227775
25077,2672.1191808998306
25933,2752.5636040195523
26789,3108.638872424715
28501,3189.576291160489
29357,2686.059091179284
30213,2797.575642824894
31069,2870.722315884952
31925,2869.6015328001213
32781,2125.1630101993464
34493,2126.757054181459
35349,2823.1136100898275
36205,2403.2136547120126
37061,2231.7873374737856
37917,2504.6900750953755
38773,2747.749573817091
40485,2928.645204885989
