Id,Sales
254,4205.356557487966
1110,8913.000820750944
1966,8190.981996310613
2822,8206.063517958242
4534,8166.440006425117
5390,8030.234593414288
6246,8414.972470302202
7102,8733.413854294875
7958,8799.300831362281
8814,8570.118602176863
10526,6397.074918000034
11382,6554.297461334668
12238,8799.434821351768
13094,8554.421379192461
13950,8028.04445871552
14806,8086.7716388866
16518,8297.171612255115
17374,4625.639306944423
18230,4093.6282807604166
19086,4364.786290183272
19942,5405.023079996059
20798,5033.437126147674
22510,6937.82731241745
23366,7627.223296362083
24222,8329.230297791277
25078,8222.696835389735
25934,8059.32959169442
26790,7814.125565600297
28502,7626.781965559575
29358,6525.786298431098
30214,5671.140455354779
31070,5107.789333783705
31926,5456.58842384936
32782,5035.289532653765
34494,6932.628266291925
35350,7626.084075538234
36206,8328.514868745435
37062,8222.696835389735
37918,8059.32959169442
38774,7814.125565600297
40486,7626.781965559575
