Id,Sales
270,6666.677773587344
1126,9554.397670428356
1982,11470.250790416656
2838,12316.342162149076
4550,12747.414763336707
5406,10800.924391000146
6262,9843.31486790512
7118,9014.73667512427
7974,8668.672517034149
8830,8510.569065017176
10542,8600.96589495546
11398,9947.387114292249
12254,10826.459351211843
13110,11833.29742402173
13966,12469.389287383623
14822,12699.25933580273
16534,12598.208329431796
17390,10921.201457671674
18246,9976.110774505983
19102,9220.73502690712
19958,8745.475868763571
20814,8375.120674936843
22526,8812.923513629587
23382,9985.835306819694
24238,10789.308043241426
25094,11807.74151408341
25950,12460.415361722507
26806,12687.098846460383
29374,12586.440923117947
30230,10879.023042274388
31086,9811.099012307594
31942,9068.585483751012
32798,8626.12134811282
34510,8399.300242966825
35366,9643.646606957505
36222,10645.393896197758
37078,11638.036599639792
37934,12478.540734412447
38790,12687.098846460383
40502,12586.440923117947
