Id,Sales
283,3722.4347235055193
1139,4977.396669743367
1995,4807.218220107457
2851,4466.154909756163
4563,3952.8051472313264
5419,4161.565726040505
6275,3604.368791968067
7131,3225.2869988545795
7987,3205.39643945996
8843,3087.153871460537
10555,3048.811540210463
11411,3172.474493637498
12267,3133.706114522386
13123,3059.091674482424
13979,2997.9411376189955
14835,2874.3606624585364
16547,2803.6929602117807
17403,3140.674539746414
18259,3278.3025551418814
19115,3173.130366563432
19971,2855.645642976645
20827,2674.0966029452043
22539,2625.6522114148406
23395,2684.696946957991
24251,3322.2192671887524
25107,3161.676668982081
25963,3124.2852636290045
26819,3001.1001091362314
28531,2948.6620804061763
29387,2884.888770603864
30243,2739.9528932837966
31099,2635.512946396629
31955,2598.2802083842644
32811,2487.031761452269
34523,2415.650146017915
35379,2645.662624848254
36235,3298.8326355620884
37091,3114.692448245179
37947,3124.2852636290045
38803,3001.1001091362314
40515,2948.6620804061763
