Id,Sales
293,10915.222633275098
1149,14184.044396356274
2005,15510.678989826138
2861,16551.21073187855
4573,16814.005740687004
5429,14726.684490184234
6285,15028.54939318446
7141,14356.52005508373
7997,14091.057285440162
8853,13975.209819417983
10565,13851.515071980919
11421,13687.409034256998
12277,15925.928400226243
13133,16299.067266274229
13989,16468.4958255775
14845,16772.04286924212
16557,16855.543062282304
17413,15042.423486257927
18269,14434.853524508591
19125,13909.850542245045
19981,13586.221405081877
20837,13407.14068456013
22549,13452.60078357559
23405,13472.600204621265
24261,15545.51425676167
25117,16012.518349238782
25973,16230.581365683734
26829,16477.941000974148
28541,16750.621360131066
29397,14860.62803191648
30253,14273.530217173417
31109,13839.905381454344
31965,13635.131809464923
32821,13204.78898887459
34533,12689.18781451705
35389,13418.773937751408
36245,14638.076124719242
37101,14815.952965732138
37957,14926.44667948791
38813,15002.451609198813
40525,15193.048886783634
