Id,Sales
299,8322.823916300911
1155,13032.690408461189
2011,12504.348418910651
2867,12240.242386051597
4579,12056.753605906692
5435,11824.820152709408
6291,11505.469868468594
7147,11029.789322160384
8003,10606.127515568587
8859,10181.87365078683
10571,9811.789652568164
11427,9895.6018945532
12283,10723.21296332039
13139,11056.925724067916
13995,10943.614809768551
14851,11011.34464438514
16563,11098.6297490244
17419,10699.821127108322
18275,10365.510172493585
19131,10200.709313328873
19987,8477.992351482584
20843,7778.917550799168
22555,7533.62856546134
23411,8853.152062709194
24267,10496.214241213635
25123,11541.139298856104
25979,11799.391271649734
26835,11783.148712705563
28547,11722.115016526159
29403,11096.601994354776
30259,8820.11078207606
31115,7904.713771014616
31971,7564.8432861749625
32827,7440.297218865786
34539,7409.508459745783
35395,8844.885468214286
36251,10563.51537571399
37107,11656.683045037644
37963,11912.28717844594
38819,11876.902554410413
40531,11759.300132519089
