Id,Sales
305,4110.941944825882
1161,6081.194381357402
2017,6514.443620117958
2873,7032.363583890207
4585,7517.491482539815
5441,6219.376194614505
6297,6155.902029449171
7153,6319.2933043325265
8009,6174.723611754467
8865,6047.684019522236
10577,6038.701176098602
11433,6049.5663844786195
12289,6458.103362503152
13145,7297.648721447816
14001,7166.772095674727
14857,7484.635382823258
16569,7772.916301053402
17425,7084.312883516325
18281,7208.496532859973
19137,7189.952921197393
19993,7090.989926928698
20849,7020.124707418376
22561,7322.883393544113
23417,7675.871521029494
24273,7134.233244513218
25129,7258.420120797031
25985,7244.868787254653
26841,7148.110902379858
28553,7047.466268917277
29409,7394.655988292297
30265,7635.257655470674
31121,7525.8657956375
31977,7305.628137742716
32833,4918.243062161982
34545,5783.079035235973
35401,7855.359983562256
36257,6869.391407860881
37113,7041.701541994895
37969,7247.531214575171
38825,7354.608249048808
40537,7412.831728775978
