Id,Sales
30,3899.7486899394116
886,4485.068102066869
1742,4870.11222010629
2598,4796.9285455389645
4310,4540.499429932711
5166,4191.500391786336
6022,4127.025134699198
6878,4095.5546296428447
7734,4064.194642945345
8590,4087.7023270711097
10302,4104.556913293238
11158,4104.459941480797
12014,4520.565753948189
12870,4861.819855962468
13726,5153.001144259136
14582,5121.353947305943
16294,4911.917013226355
17150,4533.612084075508
18006,4159.756139193064
18862,4024.254327399582
19718,3975.4742867603804
20574,3968.988173513023
22286,3950.293939463174
23142,3940.2429385216637
23998,4730.078987944516
24854,5151.42163035981
25710,5289.602020223533
26566,5157.829549185793
28278,5006.315417752724
29134,4584.739700970806
29990,4177.694180879783
30846,4040.2349601917435
31702,3984.129859297136
32558,4018.0038704101207
34270,3998.1668979895962
35126,3893.953316434892
35982,4289.991563413239
36838,4657.02802929477
37694,4822.9625599775745
38550,4793.431960604819
40262,4708.9933860801175
