Id,Sales
309,3121.430836819848
1165,4716.187417981245
2021,5360.005206750316
2877,5738.048205242768
4589,5811.048480927939
5445,6354.839972521834
6301,6260.48373006952
7157,6166.005401517671
8013,6035.85406415483
8869,6067.57387011553
10581,6130.723892435148
11437,6074.656924413479
12293,5853.58818892378
13149,5877.398240830955
14005,5841.380780943073
14861,5835.710388165347
16573,6065.737770731093
17429,6171.410673426644
18285,6161.106246033987
19141,6237.29423957405
19997,6325.115355637862
20853,6363.2434798513295
22565,6405.759320100566
23421,6281.435833958874
24277,5931.3799576673055
25133,5914.138343967634
25989,5847.822496870045
26845,5889.697170458711
28557,5861.504296262372
29413,6018.908135776395
30269,6042.501403294451
31125,6209.747339929684
31981,6304.886152562916
32837,6357.917881571307
34549,6395.1325064183475
35405,6253.468673092831
36261,5915.165515623642
37117,5914.138343967634
37973,5847.822496870045
38829,5889.697170458711
40541,5861.504296262372
