Id,Sales
312,3217.014442602622
1168,3805.6408517281097
2024,3912.472444578852
2880,4011.4918838892386
4592,4241.639418688831
5448,4131.56589781033
6304,4415.174730237003
7160,4345.839242892894
8016,4246.2160806555385
8872,4191.968026010948
10584,4229.841384581605
11440,4147.186581812396
12296,4254.429929316995
13152,4147.208896683148
14008,4105.3581525671425
14864,4171.2234030336585
16576,4195.386977112404
17432,4064.442958721227
18288,4316.464007419585
19144,4266.0865535667635
20000,4254.2493792311325
20856,4233.634446000833
22568,4100.876774824072
23424,3759.247851168753
24280,3981.0790000640695
25136,3886.630369527047
25992,3827.738955331584
26848,4037.100517396461
29416,4084.418953798019
30272,4237.77139796822
31128,4317.245384714257
31984,4286.48371781238
32840,4280.07764815749
34552,4279.748853770358
35408,3961.70165697652
36264,4116.274557146707
37120,4036.5569869806345
37976,4033.4588841960986
38832,4037.100517396461
40544,4084.418953798019
