Id,Sales
317,6788.528587639001
1173,9416.093137443595
2029,9657.845545268563
2885,10060.047114949974
4597,10092.869906654229
5453,8277.615030641273
6309,8018.83613546752
7165,7848.915476092523
8021,7830.048845593782
8877,7814.169228674331
10589,7797.063954539716
11445,7089.028783024378
12301,9367.984641587102
13157,9620.8838338307
14013,9804.684481102904
14869,9905.279207026126
16581,9979.034793650158
17437,7634.472123574136
18293,7949.9775045456145
19149,7835.65379873136
20005,7867.678587383991
20861,7902.0319207667
22573,7770.594016748239
23429,7055.732824401662
24285,9360.208318895142
25141,9612.043523005746
25997,9803.823372130591
26853,9905.778763693237
29421,9989.473277852407
30277,8375.128976511129
31133,7998.652694757064
31989,7883.496628223254
32845,7881.506688190854
34557,7891.635762151662
35413,7073.2668363368375
36269,9420.123215399852
37125,9695.78603591065
37981,9816.231207261822
38837,9905.778763693237
40549,9989.473277852407
