Id,Sales
331,4901.794688612444
1187,6143.033785338859
2043,6504.551583226173
2899,6481.1090678227465
4611,6626.970342217399
5467,6209.341030243904
6323,4798.020713873818
7179,4766.244267776561
8035,4884.920674400688
8891,5149.014970245404
10603,5534.751318015426
11459,6226.588139306666
12315,6516.234674145785
13171,6826.566028821819
14027,6905.108206925697
14883,6956.627018361213
16595,6764.152438161782
17451,6662.649437151132
18307,5063.6658539671
19163,4915.83588836488
20019,4877.709742544298
20875,5076.451183885811
22587,5207.523422494541
23443,6161.777771101379
24299,6548.858418790217
25155,6823.684788124506
26011,6931.134217956187
26867,6931.474446409351
29435,6902.289326052268
30291,6112.748744900791
31147,5161.611092507876
32003,4888.465507145326
32859,4838.8280510404
34571,5087.043680589923
35427,6111.937946727028
36283,6518.4610363062575
37139,6799.121201296096
37995,6918.119405491763
38851,6931.474446409351
40563,6902.289326052268
