Id,Sales
33,5051.223470648871
889,8433.082999249236
1745,8317.626987983735
2601,8024.309630169212
4313,7863.013753026297
5169,7336.766150613741
6025,8014.362979336362
6881,7980.070632914112
7737,8022.158879668082
8593,7999.264212520871
10305,7824.712684657878
11161,7994.27094350514
12017,8184.473108573809
12873,7902.339840519176
13729,7816.571836089477
14585,7567.056997284829
16297,7249.106048374793
17153,6775.18565472012
18009,7703.244818671317
18865,7760.504588362586
19721,7733.89076161573
20577,7673.218764902994
22289,7825.936671890369
23145,7999.127122207752
24001,8169.58828218724
24857,7893.454352929173
25713,7810.716371938931
26569,7568.483988133718
28281,7256.478425027993
29137,6776.626550527178
29993,7701.075001855308
30849,7755.207252564472
31705,7726.403372974157
32561,6792.793484239524
34273,6524.915971151702
35129,8314.61252172145
35985,8159.473660629441
36841,8131.3164566330515
37697,8219.355808929773
38553,8223.027770627248
40265,8281.94853216689
