Id,Sales
336,3555.300650623043
1192,6020.4577910417565
2048,6613.032285672862
2904,7663.049433576766
3760,6952.59233720657
4616,5603.178576652199
5472,5270.831607471733
6328,5672.765738094931
7184,5592.207093523574
8040,5394.112185428635
8896,5192.635708225447
9752,5439.36272752422
10608,5667.763679572399
11464,5925.780043087929
12320,7193.560320142932
13176,7903.657792654294
14032,8140.177156642583
14888,7407.538173402318
15744,6367.538124357122
16600,5553.144678162673
17456,5628.629643269413
18312,4997.387656621001
19168,3909.4683912872197
20024,3477.0940068544
20880,3826.2202740001494
21736,4674.168918756913
22592,5587.6115038725175
23448,6044.249091353192
24304,6818.8810929533
25160,7330.8597376875605
26016,6910.773551358367
26872,5812.8749449089655
27728,5143.486810355039
28584,4809.60956155468
29440,5551.295708828246
30296,4914.190969412668
31152,4426.444537098796
32008,4289.351944704318
32864,3816.181851822007
33720,3674.304218159902
34576,5492.508504848749
35432,6051.8385910603665
36288,6818.8810929533
37144,7330.8597376875605
38000,6910.773551358367
38856,5812.8749449089655
39712,5143.486810355039
40568,4809.60956155468
