Id,Sales
348,4156.934112588328
1204,4252.219306590184
2060,4671.122336524787
2916,4690.480368872728
4628,4814.914768584852
5484,5544.283017255562
6340,6598.677474726967
7196,5215.894144046558
8052,4974.546725018563
8908,4913.118355012659
10620,4239.983052273934
11476,4838.57044197494
12332,4614.657295056859
13188,4836.665193775862
14044,4964.892527182525
14900,5124.893096963219
16612,5181.2172977538685
17468,5237.010548855982
18324,4905.8478703823785
19180,4747.570818894597
20036,4625.168946125533
20892,4572.324805228285
22604,4559.687321115474
23460,4548.899210036563
24316,4563.73033685999
25172,4845.772845700074
26028,5023.89982085644
26884,5136.046566525122
28596,5183.586889596582
29452,5237.675117492316
30308,4908.707200588826
31164,4742.835398645658
32020,4622.459000614341
32876,4571.5752371750195
34588,4559.393569640285
35444,4548.799190778505
36300,4563.83415345937
37156,4845.772845700074
38012,5023.89982085644
38868,5136.046566525122
40580,5183.586889596582
