Id,Sales
351,5444.077378600856
1207,7953.33389318067
2063,8153.147458258857
2919,8400.058462251733
4631,8349.31570040042
5487,6676.942718833453
6343,5797.046376565817
7199,5328.855152842953
8055,5309.010408384123
8911,5246.8356647407745
10623,5115.482620915047
11479,5603.117308923543
12335,6058.607664920169
13191,5914.223078046762
14047,6010.201979256286
14903,6176.704675626261
16615,6242.145032649163
17471,5683.231911482021
18327,5086.142580188356
19183,5059.746372619209
20039,5080.362099821445
20895,4980.374510863434
22607,4814.694166436095
23463,5193.14417742723
24319,5813.727912477323
25175,5913.220377963112
26031,6024.093344852965
26887,6186.33740118037
28599,6245.665490627488
29455,5684.033471129729
30311,5086.07075226043
31167,5059.347427409613
32023,5079.6856275095215
32879,4979.4867799399635
34591,4815.3991030662055
35447,5195.371065570427
36303,5816.724226721524
37159,5913.220377963112
38015,6024.093344852965
38871,6186.33740118037
40583,6245.665490627488
