Id,Sales
353,3812.951888975289
1209,4901.676165547863
2065,4543.74005156447
2921,4482.943281033931
4633,4000.222795139828
5489,4008.6934367137806
6345,4085.491152035045
7201,4120.455773307025
8057,4016.538789935958
8913,3826.084914490678
10625,3723.193003928968
11481,3886.0380344896394
12337,4497.200795053967
13193,4334.32841002226
14049,4275.145761661793
14905,4191.761983850071
16617,4118.083966387621
17473,3701.551298212313
18329,3658.883779135187
19185,3606.0334256100514
20041,3571.12366482846
20897,3517.696594186824
22609,3657.5090843608405
23465,3868.129039569979
24321,4485.060411008313
25177,4325.298555162304
26033,4252.469587140189
26889,4170.580909239868
29457,4105.735733826587
30313,3582.3108099665355
31169,3567.201367088161
32025,3543.083816533175
32881,3515.080415607886
34593,3455.820174509632
35449,3665.104079765002
36305,4315.1267837413625
37161,4247.24117023853
38017,4168.7308831724185
38873,4170.580909239868
40585,4105.735733826587
