Id,Sales
359,5435.568626927062
1215,9755.672553926639
2071,8735.749094562692
2927,8974.94656348686
4639,10080.415025933933
5495,9503.603747307796
6351,9554.97475257059
7207,9084.56001543115
8063,7779.923914874292
8919,7405.649922064692
10631,7022.220141995388
11487,7265.855438834994
12343,8623.631279712808
13199,8509.68220181486
14055,8364.898075501897
14911,8271.131886272315
16623,8228.55651006442
17479,6622.779726924126
18335,7204.703668116677
19191,7185.377314856435
20047,7226.346272332189
20903,7133.074725512475
22615,7183.831840172353
23471,7353.195726858604
24327,8609.020773874374
25183,8514.00802241425
26039,8361.246410721265
26895,8270.602397141896
28607,8218.235130172676
29463,6622.701133238386
30319,7210.778839343099
31175,7199.755961779355
32031,7248.536920425424
32887,5998.110852320663
34599,5074.111288105651
35455,7417.372449368288
36311,7649.7783527981255
37167,6856.008676705975
38023,8033.280730201906
38879,8441.392133190173
40591,8377.364527491149
