Id,Sales
36,6053.318190365008
892,8560.002130511652
1748,8920.828209733761
2604,9030.953551368777
4316,9148.405944146552
5172,9340.54880499684
6028,8996.079050211907
6884,9004.53849026787
7740,8999.177005117861
8596,8984.269435684859
10308,8964.165269902469
11164,8977.466577059578
12020,8716.448229471087
12876,9038.068929372785
13732,9296.896106493532
14588,9373.203025431127
16300,9292.99886716188
17156,9236.505427319076
18012,8844.578887514666
18868,8907.029533079702
19724,8749.067205703981
20580,8747.761402844098
22292,8804.386878485631
23148,9079.725288185373
24004,8841.281423397877
24860,9158.494518821492
25716,9350.755068273482
26572,9432.381470421964
28284,9366.884020827334
29140,9005.028998061893
29996,8780.93991976106
30852,8812.31848724226
31708,8703.619963955098
32564,8349.931511288905
34276,8513.098336368901
35132,8959.67937963191
35988,8819.451539329562
36844,9291.593257713981
37700,9476.13023276624
38556,9542.965922361856
40268,9424.263036208391
