Id,Sales
371,2955.768565270265
1227,5284.285302390883
2083,5220.120078392036
2939,5026.840794711696
4651,4894.320492876479
5507,5858.4658298572085
6363,5783.776819344519
7219,5698.442481560372
8075,5594.493318954666
8931,5560.814286420893
10643,5564.465341783879
11499,5548.774341377317
12355,4919.163375406904
13211,4574.794311290159
14067,4550.54217805512
14923,4744.127286955253
16635,4978.92006885721
17491,5408.1435498805295
18347,5546.118969808666
19203,5527.529274686496
20059,5575.723769285274
20915,5556.079432227896
22627,5551.724181474692
23483,5534.85256846035
24339,4902.671365832353
25195,4563.789254788281
26051,4536.690518610323
26907,4715.630288393326
28619,4960.4671372913235
29475,5408.625202452131
30331,5545.75185067466
31187,5523.44231569182
32043,5570.907968464442
32899,5418.900511008884
34611,5451.601096144697
35467,5638.177596320682
36323,4638.154619741466
37179,4385.686275804526
38035,4541.070133895787
38891,4629.0399891751895
40603,4640.617571913202
