Id,Sales
379,6851.041320731156
1235,10893.223081826285
2091,10819.110013829106
2947,10993.292760023685
4659,11085.265021751551
5515,11170.979199359563
6371,11355.69571714192
7227,11131.137288635795
8083,10985.614515048419
8939,10827.779687507635
10651,10656.920133841131
11507,10644.832236998976
12363,10133.868175294647
13219,9914.731330938224
14075,10276.058771639313
14931,10512.71627028656
16643,10678.395790400638
17499,10729.212069295194
18355,11197.056527264098
19211,11076.110749426034
20067,10767.265676240855
20923,8454.84271675377
22635,8147.65647530505
23491,8264.297710918576
24347,10747.117914428789
25203,10552.13877913876
26059,10640.014241370838
26915,10740.71757232723
28627,10861.354759774213
29483,10924.608993815702
30339,11299.891424173074
31195,11161.561375404783
32051,10855.565608645062
32907,8508.725087111492
34619,8162.971727719185
35475,8262.996943098013
36331,10748.33557363899
37187,10552.13877913876
38043,10640.014241370838
38899,10740.71757232723
40611,10861.354759774213
