Id,Sales
384,8492.770687264669
1240,13432.825052824626
2096,15065.330963949786
2952,15142.523547900568
4664,15514.383198493295
5520,13770.944762514562
6376,13149.074819456215
7232,12609.285859355674
8088,12180.16977361088
8944,12012.514660629382
10656,12075.827377524956
11512,11742.733981860812
12368,12941.646897489249
13224,14400.387352446625
14080,14603.455510752054
14936,15190.681947843872
16648,15483.091657551442
17504,13459.474310450025
18360,12626.24139468053
19216,12103.976509595863
20072,11974.282408297438
20928,12112.772267442568
22640,12029.811910944336
23496,11266.790885603754
24352,12592.87202746607
25208,14049.883449689565
26064,14262.173634484026
26920,15030.246565526191
28632,15492.289725875904
29488,13572.540045385207
30344,12664.026220510525
31200,12100.016722824626
32056,11956.0479114731
32912,12108.751729611175
34624,12018.91257957674
35480,11258.991414029118
36336,12594.515495326494
37192,14049.883449689565
38048,14262.173634484026
38904,15030.246565526191
40616,15492.289725875904
