Id,Sales
396,4365.553016385588
1252,6934.060861166305
2108,7467.411685425109
2964,8157.120960825858
4676,8684.295196365161
5532,8615.91374324209
6388,7822.140500518352
7244,6635.787195212045
8100,6095.584133413461
8956,6054.50846486169
10668,6058.808715099742
11524,6344.394405143275
12380,7773.447099551184
13236,8231.232244475366
14092,8670.984957833327
14948,9038.721201478491
16660,8960.555160353466
17516,7542.084712927434
18372,5898.565499379641
19228,5359.412059968608
20084,5285.017472835038
20940,5306.122744861248
22652,5454.703345516244
23508,5586.896328271792
24364,7915.61433180574
25220,8450.609321315944
26076,8741.368285356091
26932,8976.681250718513
28644,9031.8224941702
29500,7095.674935057433
30356,5944.576405942297
31212,5459.278348260606
32068,5382.866054585282
32924,4758.063914661539
34636,4799.436381842355
35492,5613.989554178124
36348,7251.4671034389385
37204,7578.260022812008
38060,7853.317392418982
38916,8141.194150119258
40628,8251.362515916713
