Id,Sales
416,9353.768067851615
1272,10258.314981812377
2128,10773.355587475144
2984,11122.713196657956
4696,11348.802438649498
5552,10697.717377710142
6408,10499.92531729762
7264,10746.62255145259
8120,10793.94564142871
8976,10833.634811068265
10688,10897.642273413336
11544,10765.549940037074
12400,11177.435989576186
13256,11354.862695716542
14112,11329.213964515871
14968,11580.166764656025
16680,11667.110435497727
17536,11034.338526175929
18392,11005.162270247147
19248,10999.486140934343
20104,10981.422797388657
20960,10967.213693847109
22672,10929.841487695026
23528,10783.892435810167
24384,11174.501369889756
25240,11344.46738827781
26096,11315.173551593645
26952,11570.244178804582
29520,11661.718076927244
30376,11005.205954763904
31232,11002.96549021407
32088,11002.777381418784
32944,10987.727452996294
34656,10976.711452876423
35512,10889.807792152873
36368,11333.841282676656
37224,11531.803105408093
38080,11573.45810381836
38936,11570.244178804582
40648,11661.718076927244
