Id,Sales
418,4978.27068612901
1274,7826.655675575504
2130,7973.23983862991
2986,8118.834083214506
4698,8200.480517926075
5554,7223.487154228431
6410,7477.932481014448
7266,7044.788404890941
8122,6657.847379553009
8978,6452.678934749947
10690,5810.7905804461025
11546,4691.034413603195
12402,6120.9457204741475
13258,7432.252886758004
14114,7871.06280498076
14970,7974.6368274832785
16682,8233.320764280805
17538,6113.56501004638
18394,6844.358574805392
19250,6773.1272796968915
20106,6710.424813418399
20962,6771.832709467941
22674,5785.934784702718
23530,4698.442171307102
24386,6111.491898473944
25242,7427.8263662394
26098,7889.950799756488
26954,7983.183293267968
28666,8216.77434156891
29522,6099.730476262215
30378,6835.1293576475255
31234,6766.956875691942
32090,6706.600553473083
32946,6694.016112832489
34658,5547.631591912392
35514,5958.437991456397
36370,5754.827694659717
37226,6908.92255358845
38082,7869.949427828177
38938,8386.377216228055
40650,8718.97088307311
