Id,Sales
419,4930.702816962235
1275,7664.198840112731
2131,7693.908909670801
2987,7989.265738810736
4699,7750.463994042292
5555,7668.204134505229
6411,6994.163574309352
7267,6595.961156454339
8123,5607.344261622336
8979,5075.715296755372
10691,4924.493248649887
11547,5901.888964556983
12403,7451.162032648686
13259,7833.109392619013
14115,7699.179781500374
14971,7601.6480972558375
16683,7727.753120868692
17539,7234.060102887421
18395,6414.904829041662
19251,5771.423125912492
20107,5154.211346040513
20963,4897.624837449144
22675,4953.709821552513
23531,6012.155448648381
24387,7643.791174153944
25243,7849.637101974529
26099,7719.172830052403
26955,7622.374789667468
29523,7739.691963085075
30379,6868.896183141893
31235,6359.136824207246
32091,5483.07247029396
32947,5072.000786033878
34659,4906.441264660335
35515,5675.675457980531
36371,7188.520037667192
37227,7634.653380851178
38083,7669.8071212709
38939,7622.374789667468
40651,7739.691963085075
