Id,Sales
421,7664.759257300524
1277,12771.726879871787
2133,15211.376713086926
2989,14750.086316648092
4701,14772.370506131127
5557,13464.83251067086
6413,12970.746874903754
7269,12652.043801961965
8125,12588.31277104146
8981,12584.583066921423
10693,12559.09879706801
11549,12613.700843928096
12405,12584.266733824688
13261,13004.36753464731
14117,13398.07145544109
14973,14450.908345655409
16685,14852.281722747797
17541,13187.132404023976
18397,13010.490633712227
19253,13001.635829021527
20109,13016.547800024635
20965,13076.097865773101
22677,12995.552721954033
23533,13052.766858735898
24389,12818.162632915726
25245,13263.96567799213
26101,13547.152974916076
26957,14717.672982880797
28669,14920.221280892623
29525,13371.601797182702
30381,13223.215634059306
31237,13244.63405084137
32093,13236.957388777459
32949,11600.209593989344
34661,9863.600790843
35517,12919.472810748148
36373,12665.397526218634
37229,13473.119501055806
38085,13649.367836582096
38941,14975.685497571028
40653,15087.058886935205
