Id,Sales
429,3748.04059714
1285,4873.59313686
2141,5083.3353516
2997,5278.48373043
4709,5415.17490093
5565,4212.63993438
6421,3988.61587927
7277,3892.66747202
8133,3822.81594546
8989,3786.25686733
10701,3769.98216114
11557,3746.5902272
12413,5094.50863507
13269,5351.41342728
14125,5461.37178739
14981,5530.52518981
16693,5581.71087816
17549,4221.46534907
18405,3992.52321411
19261,3908.17606088
20117,3920.43968009
20973,3882.27019786
22685,3834.63436841
23541,3768.2482209
24397,5213.60616778
25253,5447.81066923
26109,5572.34418985
26965,5695.4009619
28677,5765.95436472
29533,4221.82873746
30389,4044.30708341
31245,3965.60438888
32101,3892.05553324
32957,3847.89019938
34669,3811.92623228
35525,3751.99557269
36381,5197.77591879
37237,5424.18070226
38093,5561.94418687
38949,5689.14229041
40661,5766.53935636
