Id,Sales
467,4760.99218069
1323,5917.54638758
2179,6331.46228267
3035,7161.7651308
4747,7579.10689352
5603,7900.14774715
6459,8266.46743422
7315,8137.163568
8171,7986.29272863
9027,7786.60793764
10739,7990.53921689
11595,8110.5574193
12451,8266.70791239
13307,8146.30761689
14163,8090.71440746
15019,8107.86940773
16731,8249.00248431
17587,7937.74392645
18443,7849.45156396
19299,7928.1288966
20155,7983.98752269
21011,7767.80281177
22723,7934.14548234
23579,8016.44530691
24435,8292.80104099
25291,8263.07722639
26147,8249.74814477
27003,8315.67247461
28715,8374.48916035
29571,8041.72936006
30427,7862.08219009
31283,7885.66526097
32139,7968.92967021
32995,7731.31550405
34707,7918.09098143
35563,8011.83774513
36419,8278.94522311
37275,8263.07722639
38131,8249.74814477
38987,8315.67247461
40699,8374.48933848
