Id,Sales
45,3331.3411081846516
901,5188.28558530579
1757,6044.928411815495
2613,6178.354383823319
4325,6190.700937756529
5181,5422.692973466739
6037,4981.260114511159
6893,4633.196648603916
7749,4424.256497042049
8605,4275.520024383579
10317,4160.532669035878
11173,4282.160123357857
12029,5607.546814718584
12885,6164.250532798214
13741,6377.644891059772
14597,6272.2229815475175
16309,6240.837052951921
17165,5451.262764550603
18021,5141.288936928967
18877,4752.043048118315
19733,4526.844328014117
20589,4386.738626898868
22301,4179.349930213336
23157,4392.484942915076
24013,5718.983906986322
24869,6211.703806994261
25725,6380.329863666459
26581,6270.897405995746
28293,6245.001929481864
29149,5451.449777567984
30005,5142.212811077333
30861,4753.1449114796515
31717,4528.958562755258
32573,4387.042167784221
34285,4178.124398099434
35141,4390.122198284767
35997,5717.745229960484
36853,6211.703806994261
37709,6380.329863666459
38565,6270.897405995746
40277,6245.001929481864
