Id,Sales
491,7053.68188216
1347,9588.89672587
2203,11282.6636786
3059,11577.8532787
4771,10849.8958633
5627,10049.578168
6483,6887.81290478
7339,6077.05144392
8195,5755.78867336
9051,5802.94394587
10763,5951.35125326
11619,7363.95195937
12475,6796.79850707
13331,7661.31617516
14187,8587.02280658
15043,9166.88386054
16755,9333.6586192
17611,9342.51075242
18467,7443.31106798
19323,6515.24233324
20179,6019.3119198
21035,5976.90556802
22747,6002.63694901
23603,7616.33024447
24459,7126.88889312
25315,8227.41800218
26171,9081.96119189
27027,9265.12832231
29595,9330.18142223
30451,8229.5558693
31307,6984.26058755
32163,6162.89467742
33019,5627.12750448
34731,5653.53707829
35587,7360.97785266
36443,7147.27529773
37299,8240.70024154
38155,9017.45488774
39011,9265.12832231
40723,9330.18142223
