Id,Sales
494,9264.01793472
1350,9848.03323156
2206,9550.6825018
3062,11098.4564498
4774,12714.8558058
5630,11684.7597533
6486,11447.1279744
7342,11491.5296344
8198,11201.0337326
9054,11201.3371984
10766,10558.7106286
11622,10661.3362008
12478,13398.7167197
13334,14344.585722
14190,14797.5037887
15046,14755.47622
16758,14331.4023971
17614,12106.9610794
18470,11570.9300908
19326,11254.5132496
20182,11013.7060868
21038,10535.6062757
22750,10567.0643022
23606,10690.5149987
24462,13405.4688734
25318,14334.8268423
26174,14790.8575245
27030,14753.2927812
28742,14325.5817871
29598,12108.5643352
30454,11588.8281035
31310,11281.9740649
32166,11049.3800473
33022,11038.0730658
34734,10765.2052254
35590,10775.7626163
36446,13151.8140642
37302,13550.8297857
38158,13779.4490601
39014,13865.8444981
40726,13802.0021089
