Id,Sales
504,4470.41521527
1360,5737.99340539
2216,6950.00250578
3072,7726.6661777
4784,7897.35191428
5640,7697.03389238
6496,7946.56946979
7352,8098.11043908
8208,8140.98116775
9064,8141.94708763
10776,8161.66579418
11632,8128.11985863
12488,8277.54449476
13344,7939.93983754
14200,7947.96593464
15056,7956.57592895
16768,7976.76827118
17624,7643.01443867
18480,7750.557984
19336,7906.52824361
20192,7986.431091
21048,8036.77335021
22760,8020.37896509
23616,7992.89632676
24472,8288.15657753
25328,7912.7206319
26184,7889.93252711
27040,7903.8176932
28752,7926.43524569
29608,7561.83896695
30464,7707.77579044
31320,7896.71840844
32176,7992.44170168
33032,7885.02416951
34744,7570.9705761
35600,8000.96841142
36456,7985.29208407
37312,7794.10711975
38168,7852.37390511
39024,7848.28408992
40736,7842.21590426
