Id,Sales
536,6266.401511794009
1392,6742.504083567063
2248,6769.801087795684
3104,6775.259985250875
4816,6415.510635315514
5672,7062.017894252829
6528,6360.254947967975
7384,6626.770311747125
8240,6562.112967200081
9096,6580.644357490468
10808,6715.295638784171
11664,7149.802025339361
12520,6460.216002842212
13376,6637.758022009397
14232,6568.510408339058
15088,6560.081413515063
16800,6539.509427154146
17656,7109.007070054168
18512,6397.149372381396
19368,6682.3180588246305
20224,6659.4222726077915
21080,6678.029824021505
22792,6683.427568848908
23648,7149.351490811774
24504,6451.7247367448
25360,6637.797733929271
26216,6569.191383866477
27072,6560.852346795249
29640,6540.358479187512
30496,6757.858427047048
31352,6654.57657939892
32208,6665.611925320947
33064,6662.768141687893
34776,6670.627745886087
35632,7145.391019178314
36488,6440.267195317819
37344,6625.753928971566
38200,6541.969608556492
39056,6560.852346795249
40768,6540.358479187512
