Id,Sales
53,4673.136627684404
909,5152.406759156472
1765,5606.573540743343
2621,5576.479806222888
4333,6345.738057365424
5189,5445.4836088700995
6045,5320.992463048152
6901,5270.693607881312
7757,5123.092147537633
8613,5178.839665531378
10325,4957.8699157129495
11181,4974.871886695697
12037,5792.787912294245
12893,6350.88246745179
13749,6951.085891759896
14605,7159.585127353636
16317,7249.527145082206
17173,5954.7747100810475
18029,5762.518862626975
18885,5771.314305599831
19741,5785.5340232035705
20597,5785.248861223031
22309,5795.773367322897
23165,5794.637217223774
24021,6316.2203940243735
24877,6768.0147363806645
25733,6958.258969963341
26589,7122.076531653598
28301,7205.932245176063
29157,5915.334599241527
30013,5697.578793862025
30869,5723.784210342887
31725,5744.989646832679
32581,5773.413689490211
34293,5785.283744339473
35149,5795.926992967513
36005,6317.452097875124
36861,6768.0147363806645
37717,6958.258969963341
38573,7122.076531653598
40285,7205.932245176063
