Id,Sales
562,4641.34887571
1418,6145.04227018
2274,6367.9976641
3130,6304.51327844
4842,6386.62990913
5698,6415.95031156
6554,6230.61998505
7410,5829.88337695
8266,5552.14277551
9122,5435.29259061
10834,5443.71242665
11690,5351.03415855
12546,6329.86895657
13402,6549.06191029
14258,6767.98367317
15114,6765.23657207
16826,6725.18505642
17682,6402.60954102
18538,6426.19996492
19394,6157.44074866
20250,5836.40112496
21106,5522.37562535
22818,5310.3452557
23674,5927.42766489
24530,6266.80799237
25386,6957.60092948
26242,6970.48264225
27098,6826.83947886
28810,6416.1433539
29666,6020.87647578
30522,6264.39196886
31378,6092.6452869
32234,5859.66845617
33090,5533.40284524
34802,5261.36181688
35658,5971.05754293
36514,6252.45373109
37370,6931.24551239
38226,6970.48279012
39082,6826.83947886
40794,6416.14342783
