Id,Sales
564,4033.94919957
1420,4480.46864857
2276,4310.22731346
3132,4238.55639902
4844,4284.98973142
5700,3911.27927398
6556,4002.00816682
7412,3806.34313556
8268,3748.62155424
9124,3810.67068984
10836,3915.82182215
11692,3869.5768768
12548,4639.44399626
13404,4616.81555495
14260,4530.39556486
15116,4659.69500357
16828,4798.38204091
17684,3954.16467237
18540,4198.02363278
19396,4129.04776303
20252,4019.70598797
21108,3964.93602677
22820,3943.10318318
23676,3883.60148453
24532,4705.791071
25388,4668.67407369
26244,4549.88032218
27100,4678.08761064
28812,4805.54235363
29668,3955.3383144
30524,4198.64936127
31380,4129.2791355
32236,4019.76682269
33092,3965.61898
34804,3944.72165399
35660,3884.4262963
36516,4708.14016003
37372,4668.67407369
38228,4549.88032218
39084,4678.08774434
40796,4805.54242048
