Id,Sales
566,6913.41926291
1422,9617.49364735
2278,11442.2373198
3134,11856.4695984
4846,12268.9075943
5702,11562.6036048
6558,11293.8269171
7414,11681.0100318
8270,12010.0846528
9126,12066.0986649
10838,12008.0199206
11694,11909.0347775
12550,10949.191229
13406,11311.3319157
14262,11556.4322461
15118,12146.1670627
16830,12467.13631
17686,11613.877838
18542,10527.5140748
19398,10748.6186171
20254,11478.1163616
21110,12065.076065
22822,12039.7628869
23678,11939.3064982
24534,10941.1065899
25390,11291.9499971
26246,11528.6895294
27102,12115.8421535
28814,12463.058832
29670,11609.4190261
30526,10518.9122761
31382,10742.5866902
32238,11480.8175518
33094,8257.57142283
34806,8931.48637205
35662,12211.9497132
36518,10624.9074719
37374,11613.7843826
38230,12045.2436977
39086,12692.7381281
40798,12838.1753885
