Id,Sales
571,4515.39597057
1427,7511.15730915
2283,9035.22740418
3139,9090.91891632
4851,8991.94285813
5707,9772.12155699
6563,8682.44467352
7419,7997.39895465
8275,7826.09658901
9131,7467.67356493
10843,7130.46514432
11699,7221.33822279
12555,8023.27302219
13411,8380.02991931
14267,8569.53360813
15123,8682.39662338
16835,8745.5228451
17691,7951.55550536
18547,7215.22990701
19403,7166.68585324
20259,7212.62120425
21115,7117.26325164
22827,7144.20643481
23683,7232.36969529
24539,8017.00107936
25395,8376.47001037
26251,8572.93980327
27107,8693.82159388
28819,8752.03597164
29675,7972.60659839
30531,7226.81605541
31387,7168.84636016
32243,7211.8655808
33099,6801.52228084
34811,6569.30735296
35667,7848.8652413
36523,8357.02019994
37379,8404.35868502
38235,8397.10917841
39091,8646.22536412
40803,9227.69247446
