Id,Sales
58,4612.264601525956
914,5214.594363863515
1770,5340.791039634033
2626,6342.91597912454
4338,6400.325781657307
5194,6417.806467668617
6050,6278.052543027457
6906,4995.740932382885
7762,4761.074510490742
8618,4685.862022856148
10330,4644.325753632372
11186,4512.785706172961
12042,6114.050313993046
12898,6420.675916734011
13754,6369.85061528842
14610,6300.40078579863
16322,6340.275794026243
17178,6502.978492431477
18034,5280.438299100039
18890,4744.03445077008
19746,4560.066635859137
20602,4546.170504266353
22314,4511.210515203319
23170,4289.31895200322
24026,5232.057301893459
24882,5815.546525582431
25738,6058.796002836919
26594,6143.527348487756
28306,6187.290960561439
29162,5940.733429568915
30018,4927.3896145839635
30874,4550.670347438238
31730,4389.930798582356
32586,4511.03380370053
34298,4232.61591865052
35154,4679.125165721132
36010,5363.1691696985035
36866,5817.972102243701
37722,6058.796002836919
38578,6143.527348487756
40290,6187.290960561439
