Id,Sales
583,3068.89350321
1439,3980.17171934
2295,5810.23746398
3151,6970.90095231
4863,7524.17280639
5719,6880.30364159
6575,7005.28534612
7431,6865.69592967
8287,6684.63472442
9143,6184.15677038
10855,5832.14460735
11711,5793.67286775
12567,6662.29273047
13423,7266.56383255
14279,7769.3500229
15135,8005.81298368
16847,8064.03780774
17703,7043.3484419
18559,6841.14281188
19415,6795.89815831
20271,6757.70119254
21127,6688.79445077
22839,6544.06692254
23695,6456.35598497
24551,7063.31730663
25407,7537.04701538
26263,7832.30567631
27119,7923.83009345
28831,7955.82139098
29687,6968.13710424
30543,6870.19191929
31399,6817.18734419
32255,6719.26689116
33111,4888.47909944
34823,5256.89510126
35679,7870.69051387
36535,8292.19266072
37391,8411.02428709
38247,8519.50889762
39103,8548.80237448
40815,8555.94604025
