Id,Sales
588,5022.55233955
1444,6585.2476039
2300,7395.27250641
3156,7644.57061604
4868,7547.59333527
5724,7721.78439493
6580,7313.93730093
7436,7299.34349564
8292,7535.63747325
9148,7529.17225944
10860,6921.70290629
11716,6682.82609834
12572,7050.3104308
13428,6626.87220622
14284,6418.31980352
15140,6406.84030757
16852,5795.5690239
17708,4343.46763355
18564,3331.35408657
19420,3565.68914105
20276,3927.0837288
21132,4037.98942408
22844,4132.17969871
23700,4223.15556097
24556,5413.73939045
25412,4887.9855417
26268,4859.92175807
27124,5081.03024404
28836,5252.45480776
29692,3762.30076665
30548,2864.77019635
31404,3174.03789788
32260,4009.49320593
33116,4013.30678095
34828,4636.97661627
35684,7167.77046004
36540,6763.51463688
37396,6205.55175962
38252,6070.98046275
39108,6183.31386684
40820,6192.82186889
