Id,Sales
62,6173.512719240167
918,6189.75054684392
1774,6932.58931345741
2630,7286.477492196961
4342,7512.150981278615
5198,6976.2488038645315
6054,6931.04073772223
6910,6674.183226802417
7766,6453.412829981612
8622,6279.576604618629
10334,6241.249024946774
11190,6179.746860664094
12046,6928.369551572318
12902,6839.491956147817
13758,6923.521303271111
14614,6884.447042638133
16326,6780.157607684124
17182,7068.534069016435
18038,6430.154764199078
18894,6440.399700397904
19750,6460.417217305005
20606,6311.13671441895
22318,6244.377349766062
23174,5754.167350035908
24030,6959.002914694314
24886,6801.927806507612
25742,6842.6228171039675
26598,6905.37302490368
28310,6847.306375017699
29166,7223.556729193279
30022,6482.190057937724
30878,6478.376236459108
31734,6461.610047009103
32590,6312.214678257673
34302,6245.7784597099535
35158,5754.667391687201
36014,6959.069910976419
36870,6801.927806507612
37726,6842.6228171039675
38582,6905.37302490368
40294,6847.306375017699
