Id,Sales
630,6307.77656321
1486,9423.35006381
2342,10595.9420223
3198,10486.8407923
4910,9849.08728821
5766,7735.17501911
6622,7277.22774457
7478,6353.77394405
8334,6575.63925913
9190,6634.45663267
10902,6688.36231128
11758,7580.33666095
12614,7918.10075043
13470,9364.84563297
14326,10042.4666912
15182,9662.05293501
16894,9468.81954535
17750,7184.10217932
18606,6890.74298002
19462,6553.19424682
20318,6621.8988244
21174,6605.77661346
22886,6618.25741837
23742,7339.42673772
24598,7867.20712863
25454,9333.6135121
26310,10038.7831864
27166,9679.96687279
29734,9475.76436863
30590,7613.95648531
31446,6808.05829692
32302,6390.68199815
33158,6598.67711735
34870,6638.23565888
35726,6783.90255783
36582,8057.53330861
37438,9520.40952793
38294,9685.78928559
39150,9679.96687279
40862,9475.76436863
