Id,Sales
631,4046.64409336
1487,5122.75467907
2343,6671.13769283
3199,6647.2649135
4911,6382.14664063
5767,7163.89397978
6623,7298.68374782
7479,6991.79037181
8335,5664.1292818
9191,5191.06684995
10903,5199.0164447
11759,5264.75542921
12615,6299.26353765
13471,7300.05555334
14327,7867.61863063
15183,7170.75649758
16895,6882.41049698
17751,7009.11855844
18607,6327.16265423
19463,5901.18475585
20319,5571.34921357
21175,5297.23459465
22887,5196.43818167
23743,5264.6139573
24599,6309.38740528
25455,7301.68674386
26311,7865.71964692
27167,7153.87235902
28879,6869.61575716
29735,7021.1162645
30591,6354.18763546
31447,5925.32905654
32303,5583.77657064
33159,4845.23087276
34871,4541.69054354
35727,5737.03316197
36583,6273.83952501
37439,6086.1352186
38295,6219.00355464
39151,5268.83570585
40863,4901.2316166
