Id,Sales
64,6427.8841365238495
920,11639.223814891908
1776,12682.803197446803
2632,13245.643118671858
4344,13484.213229273815
5200,14243.89746557691
6056,13866.65165172653
6912,13576.011845353549
7768,13558.405490210618
8624,13542.54510972607
10336,13467.500519938858
11192,13388.235602857167
12048,12633.742642351324
12904,12789.181368326575
13760,12913.381475571412
14616,12920.371038626545
16328,12932.977042300325
17184,14045.449452783068
18040,13831.399956892
18896,13655.98348233036
19752,13599.179329704191
20608,13550.037473498665
22320,13465.611935136623
23176,13387.154697935068
24032,12638.796972426328
24888,12795.8244020602
25744,12920.935481579083
26600,12923.501131363348
28312,12925.248772028084
29168,14038.081039883167
30024,13827.385881184073
30880,13654.783624554628
31736,13596.703977464282
32592,12870.317210543159
34304,12284.804608854427
35160,12820.911125729981
36016,12145.261915899686
36872,12336.402824827434
37728,12395.4074386452
38584,12466.089090994077
40296,12550.978445524912
