Id,Sales
653,6552.88024491
1509,8040.13528989
2365,8364.79084169
3221,8685.5962657
4933,9006.78928735
5789,7308.81921609
6645,7258.71428079
7501,7161.91447456
8357,7138.99381384
9213,7155.51152836
10925,7165.14626122
11781,7146.77242364
12637,8404.67004881
13493,8482.87666807
14349,9370.95465266
15205,9271.94534773
16917,9088.36383935
17773,7302.93488628
18629,7351.26562995
19485,7360.46335987
20341,7334.57483131
21197,7316.21053297
22909,7286.01525201
23765,7258.1895169
24621,8921.66550416
25477,8978.16633722
26333,8895.03286232
27189,8653.48439354
28901,8505.95695197
29757,7156.68199244
30613,7262.03594824
31469,7321.98155787
32325,7306.70722957
33181,7294.93443628
34893,7274.28623321
35749,7258.70018392
36605,8921.93445758
37461,8978.16633722
38317,8895.03296831
39173,8653.48455252
40885,8505.95700497
