Id,Sales
658,4329.78430606
1514,7740.50116434
2370,7854.28973139
3226,7752.58208904
4938,7831.49125467
5794,8774.0097955
6650,7978.73210784
7506,7413.21059269
8362,7102.06129061
9218,6938.68086636
10930,6887.54429971
11786,7634.96716649
12642,7019.72181295
13498,7579.14741566
14354,7876.9471351
15210,8000.13364208
16922,7826.6214385
17778,8928.12925651
18634,7961.42368895
19490,7460.49902345
20346,7157.38488807
21202,7062.03312413
22914,7028.67974898
23770,7756.48797294
24626,6833.8707169
25482,7181.71538566
26338,7477.52289848
27194,7713.21892393
28906,7803.06504407
29762,8912.6597822
30618,8219.71996954
31474,7918.03155073
32330,7540.91862938
33186,7116.88094989
34898,7038.92752389
35754,7556.0673924
36610,6753.03028979
37466,7181.71538566
38322,7477.52289848
39178,7713.21892393
40890,7803.06524389
