Id,Sales
673,6696.29640162
1529,9512.59763076
2385,9031.04598154
3241,8432.75654368
4953,7739.57454006
5809,5906.95452968
6665,7068.1199784
7521,7030.33273027
8377,7314.83068863
9233,7166.21418871
10945,6877.29009819
11801,7596.71153734
12657,9402.53062705
13513,8977.28694461
14369,8397.65889691
15225,7711.03242944
16937,8076.03779255
17793,7051.76284048
18649,7396.06781425
19505,7096.70954866
20361,6989.40145475
21217,6961.78793246
22929,6956.75373816
23785,7445.81674328
24641,9493.13177079
25497,9169.14421023
26353,8614.46774895
27209,8291.66284495
28921,8156.74719015
29777,6439.25442269
30633,7236.28741838
31489,7112.6021609
32345,7046.98747484
33201,6537.95310673
34913,6448.38588858
35769,8839.19132041
36625,8441.68048941
37481,7877.67699381
38337,7924.0550731
39193,8109.54290802
40905,8064.13931401
