Id,Sales
675,3881.79445403
1531,6545.2232303
2387,6677.78674531
3243,6743.65838356
4955,6686.22330749
5811,5848.30805252
6667,5665.42632507
7523,5458.28676403
8379,5565.10952987
9235,5659.96478439
10947,3737.08218344
11803,4484.33209862
12659,5372.80365347
13515,6227.56390945
14371,6307.71248728
15227,6315.91522581
16939,6025.85389961
17795,5410.60487786
18651,4544.93643065
19507,3834.11210392
20363,3422.13215933
21219,3752.6230609
22931,3462.03187582
23787,4140.10268811
24643,5025.61901606
25499,5361.35124345
26355,5642.04723008
27211,5759.1244795
28923,5763.75614949
29779,5500.45269648
30635,4812.59012134
31491,4002.42147514
32347,3471.01650083
33203,3761.02604296
34915,3420.75802565
35771,4174.43738416
36627,5033.49417173
37483,5361.35097834
38339,5642.04731845
39195,5759.12439114
40907,5763.75614949
