Id,Sales
678,5745.62734919
1534,8163.11246407
2390,8771.06719239
3246,8886.7710128
4958,8676.46112452
5814,8839.13297417
6670,7874.07941247
7526,7893.075071
8382,7807.59582929
9238,7802.59087518
10950,7643.73492882
11806,8462.63892948
12662,7832.50756363
13518,7708.08323066
14374,7627.62933227
15230,7575.42234143
16942,7608.43617468
17798,8379.05969248
18654,7494.11905834
19510,7635.82526428
20366,7671.27451197
21222,7484.08291338
22934,7413.09768969
23790,8221.03359562
24646,7822.25483512
25502,7729.74723177
26358,7619.25506873
27214,7569.65920255
28926,7601.52122882
29782,8370.95059553
30638,7486.83487666
31494,7634.22475216
32350,7670.08005249
33206,7478.1044245
34918,7408.44353926
35774,8218.48051914
36630,7822.05267465
37486,7729.74730293
38342,7619.25512803
39198,7569.65910766
40910,7601.52120509
