Id,Sales
683,4267.06696544
1539,6157.34379248
2395,7060.00693223
3251,7338.58604672
4963,7247.10756083
5819,7795.39116939
6675,7897.11969327
7531,7530.72319604
8387,7319.98170564
9243,7237.03862414
10955,6183.70273356
11811,6386.01595339
12667,7912.91261318
13523,7898.92495962
14379,7734.18828909
15235,7349.80332655
16947,7087.89521878
17803,7463.22051905
18659,7197.09470487
19515,7019.85646224
20371,6899.9432663
21227,6101.61237155
22939,6179.13513878
23795,6384.87524507
24651,7889.58486124
25507,7876.7219075
26363,7721.23683707
27219,7340.54056155
28931,7082.1786241
29787,7455.26092813
30643,7185.77726928
31499,7003.35227232
32355,6873.25455009
33211,5158.47315301
34923,4932.47730562
35779,6220.24702188
36635,6583.06057028
37491,6225.76314087
38347,5972.09768715
39203,5848.79725657
40915,5817.04455891
