Id,Sales
689,5101.82054821
1545,7336.47579869
2401,6800.16874144
3257,6725.02864061
4969,5914.47187171
5825,5594.93118258
6681,4382.25991993
7537,3924.67276024
8393,3793.21327165
9249,3795.31837778
10961,3979.87987942
11817,4687.93307337
12673,5089.39283722
13529,5534.93565806
14385,5704.87993036
15241,5740.17226543
16953,5763.26076539
17809,5517.28830539
18665,4461.83540871
19521,4134.30713708
20377,4032.78890656
21233,3992.2520802
22945,3978.84980569
23801,4669.66975619
24657,5087.63470812
25513,5535.57578404
26369,5699.90664391
27225,5733.38962145
29793,5757.00799158
30649,4756.95489413
31505,4334.83814566
32361,4103.80863605
33217,4041.69990061
34929,4013.46019098
35785,4678.66363325
36641,5101.99151353
37497,5536.14862492
38353,5703.75221678
39209,5733.38962145
40921,5757.00799158
