Id,Sales
701,4981.13690673
1557,7436.5867667
2413,7612.40185466
3269,7919.99043927
4981,8267.22214388
5837,7541.34961301
6693,7151.06342948
7549,6201.82103005
8405,5474.76898497
9261,5186.27280156
10973,5047.48043222
11829,5029.81849328
12685,5869.93230925
13541,6155.97755837
14397,6251.99308456
15253,6341.06096095
16965,6373.68395727
17821,6062.3506256
18677,5870.03063685
19533,5590.81686252
20389,5314.94668531
21245,5145.30830539
22957,5055.1488175
23813,5037.24251904
24669,5872.44829488
25525,6159.40764041
26381,6256.09899164
27237,6347.07741752
28949,6378.6655346
29805,6064.49731979
30661,5872.88338826
31517,5593.85667823
32373,5317.47568122
33229,5446.4324549
34941,5386.64810596
35797,5359.03431294
36653,6243.88230847
37509,6483.29913308
38365,6688.88613392
39221,6805.66458805
40933,6838.86637449
