Id,Sales
712,4594.2612082
1568,5103.7489844
2424,5125.49279189
3280,5077.15011809
4992,5314.16200142
5848,5571.07107378
6704,5455.66421284
7560,5397.32149395
8416,5338.96366832
9272,5405.16614552
10984,5458.11465293
11840,5428.2987696
12696,5411.40522401
13552,5680.51741784
14408,5738.59687874
15264,5777.35469187
16976,5766.81259448
17832,5743.43847754
18688,5598.50723584
19544,5529.09865999
20400,5460.57296856
21256,5455.78220283
22968,5465.3186468
23824,5426.94868637
24680,5416.516954
25536,5683.82387599
26392,5744.66026098
27248,5786.83138909
29816,5769.90532107
30672,5800.75293662
31528,5538.03735008
32384,5487.18329021
33240,5451.47667808
34952,5449.04521089
35808,5401.51203574
36664,5428.61640466
37520,5698.48572477
38376,5764.78091861
39232,5786.83138909
40944,5769.90532107
