Id,Sales
730,4503.00120472
1586,5535.63500077
2442,4940.14276005
3298,4909.43080323
5010,5000.93202192
5866,5363.72495454
6722,5481.9274755
7578,5534.1831709
8434,5426.10169812
9290,5237.60344336
11002,5018.18617923
11858,5014.78659718
12714,6016.2040388
13570,5405.71826815
14426,5255.80313901
15282,5190.06374477
16994,5129.57656275
17850,5595.55003028
18706,5294.91357864
19562,5299.42100778
20418,5272.66364555
21274,5137.73745359
22986,5137.72059773
23842,5165.77595637
24698,5826.77918486
25554,5390.84665916
26410,5226.87885099
27266,5148.38089159
28978,5113.89966001
29834,5621.04888428
30690,5314.01312188
31546,5325.1007309
32402,5285.46894311
33258,5136.85204713
34970,5137.09124892
35826,5165.26914402
36682,5826.73017974
37538,5390.84670651
38394,5226.87885099
39250,5148.38108099
40962,5113.8997547
