Id,Sales
756,3577.67884807
1612,5668.75087511
2468,6043.2893643
3324,6752.67280614
5036,6675.88613413
5892,6714.63315785
6748,5560.24587723
7604,5294.58265615
8460,5136.97624124
9316,5054.80854122
11028,4945.85690623
11884,7230.24831605
12740,7498.16905097
13596,7208.259457
14452,7168.50199047
15308,7220.55408708
17020,7229.40609854
17876,6483.01788864
18732,5445.15794585
19588,5126.57960069
20444,5042.90550956
21300,5164.48784341
23012,5196.72497309
23868,6254.09967918
24724,7240.08807846
25580,7198.95753556
26436,7168.65603336
27292,7219.65448532
29004,7234.96233399
29860,6017.96512756
30716,5342.05197675
31572,5271.51696966
32428,5322.84036266
33284,5198.92559361
34996,5199.0332709
35852,6220.43083428
36708,7093.81126182
37564,7055.99831405
38420,7141.94159225
39276,7219.65448532
40988,7234.9621158
